(kicad_sch (version 20230121) (generator eeschema)

  (uuid 9114eb76-cc2f-406a-9f2d-aff6b30a47d1)

  (paper "A4")

  (title_block
    (title "Rover Power Distribution")
    (date "2024-01-22")
    (rev "1")
    (company "Klaas Kliffen")
  )

  (lib_symbols
    (symbol "Connector:Screw_Terminal_01x02" (pin_names (offset 1.016) hide) (in_bom yes) (on_board yes)
      (property "Reference" "J" (at 0 2.54 0)
        (effects (font (size 1.27 1.27)))
      )
      (property "Value" "Screw_Terminal_01x02" (at 0 -5.08 0)
        (effects (font (size 1.27 1.27)))
      )
      (property "Footprint" "" (at 0 0 0)
        (effects (font (size 1.27 1.27)) hide)
      )
      (property "Datasheet" "~" (at 0 0 0)
        (effects (font (size 1.27 1.27)) hide)
      )
      (property "ki_keywords" "screw terminal" (at 0 0 0)
        (effects (font (size 1.27 1.27)) hide)
      )
      (property "ki_description" "Generic screw terminal, single row, 01x02, script generated (kicad-library-utils/schlib/autogen/connector/)" (at 0 0 0)
        (effects (font (size 1.27 1.27)) hide)
      )
      (property "ki_fp_filters" "TerminalBlock*:*" (at 0 0 0)
        (effects (font (size 1.27 1.27)) hide)
      )
      (symbol "Screw_Terminal_01x02_1_1"
        (rectangle (start -1.27 1.27) (end 1.27 -3.81)
          (stroke (width 0.254) (type default))
          (fill (type background))
        )
        (circle (center 0 -2.54) (radius 0.635)
          (stroke (width 0.1524) (type default))
          (fill (type none))
        )
        (polyline
          (pts
            (xy -0.5334 -2.2098)
            (xy 0.3302 -3.048)
          )
          (stroke (width 0.1524) (type default))
          (fill (type none))
        )
        (polyline
          (pts
            (xy -0.5334 0.3302)
            (xy 0.3302 -0.508)
          )
          (stroke (width 0.1524) (type default))
          (fill (type none))
        )
        (polyline
          (pts
            (xy -0.3556 -2.032)
            (xy 0.508 -2.8702)
          )
          (stroke (width 0.1524) (type default))
          (fill (type none))
        )
        (polyline
          (pts
            (xy -0.3556 0.508)
            (xy 0.508 -0.3302)
          )
          (stroke (width 0.1524) (type default))
          (fill (type none))
        )
        (circle (center 0 0) (radius 0.635)
          (stroke (width 0.1524) (type default))
          (fill (type none))
        )
        (pin passive line (at -5.08 0 0) (length 3.81)
          (name "Pin_1" (effects (font (size 1.27 1.27))))
          (number "1" (effects (font (size 1.27 1.27))))
        )
        (pin passive line (at -5.08 -2.54 0) (length 3.81)
          (name "Pin_2" (effects (font (size 1.27 1.27))))
          (number "2" (effects (font (size 1.27 1.27))))
        )
      )
    )
    (symbol "Device:C" (pin_numbers hide) (pin_names (offset 0.254)) (in_bom yes) (on_board yes)
      (property "Reference" "C" (at 0.635 2.54 0)
        (effects (font (size 1.27 1.27)) (justify left))
      )
      (property "Value" "C" (at 0.635 -2.54 0)
        (effects (font (size 1.27 1.27)) (justify left))
      )
      (property "Footprint" "" (at 0.9652 -3.81 0)
        (effects (font (size 1.27 1.27)) hide)
      )
      (property "Datasheet" "~" (at 0 0 0)
        (effects (font (size 1.27 1.27)) hide)
      )
      (property "ki_keywords" "cap capacitor" (at 0 0 0)
        (effects (font (size 1.27 1.27)) hide)
      )
      (property "ki_description" "Unpolarized capacitor" (at 0 0 0)
        (effects (font (size 1.27 1.27)) hide)
      )
      (property "ki_fp_filters" "C_*" (at 0 0 0)
        (effects (font (size 1.27 1.27)) hide)
      )
      (symbol "C_0_1"
        (polyline
          (pts
            (xy -2.032 -0.762)
            (xy 2.032 -0.762)
          )
          (stroke (width 0.508) (type default))
          (fill (type none))
        )
        (polyline
          (pts
            (xy -2.032 0.762)
            (xy 2.032 0.762)
          )
          (stroke (width 0.508) (type default))
          (fill (type none))
        )
      )
      (symbol "C_1_1"
        (pin passive line (at 0 3.81 270) (length 2.794)
          (name "~" (effects (font (size 1.27 1.27))))
          (number "1" (effects (font (size 1.27 1.27))))
        )
        (pin passive line (at 0 -3.81 90) (length 2.794)
          (name "~" (effects (font (size 1.27 1.27))))
          (number "2" (effects (font (size 1.27 1.27))))
        )
      )
    )
    (symbol "Device:Fuse" (pin_numbers hide) (pin_names (offset 0)) (in_bom yes) (on_board yes)
      (property "Reference" "F" (at 2.032 0 90)
        (effects (font (size 1.27 1.27)))
      )
      (property "Value" "Fuse" (at -1.905 0 90)
        (effects (font (size 1.27 1.27)))
      )
      (property "Footprint" "" (at -1.778 0 90)
        (effects (font (size 1.27 1.27)) hide)
      )
      (property "Datasheet" "~" (at 0 0 0)
        (effects (font (size 1.27 1.27)) hide)
      )
      (property "ki_keywords" "fuse" (at 0 0 0)
        (effects (font (size 1.27 1.27)) hide)
      )
      (property "ki_description" "Fuse" (at 0 0 0)
        (effects (font (size 1.27 1.27)) hide)
      )
      (property "ki_fp_filters" "*Fuse*" (at 0 0 0)
        (effects (font (size 1.27 1.27)) hide)
      )
      (symbol "Fuse_0_1"
        (rectangle (start -0.762 -2.54) (end 0.762 2.54)
          (stroke (width 0.254) (type default))
          (fill (type none))
        )
        (polyline
          (pts
            (xy 0 2.54)
            (xy 0 -2.54)
          )
          (stroke (width 0) (type default))
          (fill (type none))
        )
      )
      (symbol "Fuse_1_1"
        (pin passive line (at 0 3.81 270) (length 1.27)
          (name "~" (effects (font (size 1.27 1.27))))
          (number "1" (effects (font (size 1.27 1.27))))
        )
        (pin passive line (at 0 -3.81 90) (length 1.27)
          (name "~" (effects (font (size 1.27 1.27))))
          (number "2" (effects (font (size 1.27 1.27))))
        )
      )
    )
    (symbol "Regulator_Linear:L7805" (pin_names (offset 0.254)) (in_bom yes) (on_board yes)
      (property "Reference" "U" (at -3.81 3.175 0)
        (effects (font (size 1.27 1.27)))
      )
      (property "Value" "L7805" (at 0 3.175 0)
        (effects (font (size 1.27 1.27)) (justify left))
      )
      (property "Footprint" "" (at 0.635 -3.81 0)
        (effects (font (size 1.27 1.27) italic) (justify left) hide)
      )
      (property "Datasheet" "http://www.st.com/content/ccc/resource/technical/document/datasheet/41/4f/b3/b0/12/d4/47/88/CD00000444.pdf/files/CD00000444.pdf/jcr:content/translations/en.CD00000444.pdf" (at 0 -1.27 0)
        (effects (font (size 1.27 1.27)) hide)
      )
      (property "ki_keywords" "Voltage Regulator 1.5A Positive" (at 0 0 0)
        (effects (font (size 1.27 1.27)) hide)
      )
      (property "ki_description" "Positive 1.5A 35V Linear Regulator, Fixed Output 5V, TO-220/TO-263/TO-252" (at 0 0 0)
        (effects (font (size 1.27 1.27)) hide)
      )
      (property "ki_fp_filters" "TO?252* TO?263* TO?220*" (at 0 0 0)
        (effects (font (size 1.27 1.27)) hide)
      )
      (symbol "L7805_0_1"
        (rectangle (start -5.08 1.905) (end 5.08 -5.08)
          (stroke (width 0.254) (type default))
          (fill (type background))
        )
      )
      (symbol "L7805_1_1"
        (pin power_in line (at -7.62 0 0) (length 2.54)
          (name "IN" (effects (font (size 1.27 1.27))))
          (number "1" (effects (font (size 1.27 1.27))))
        )
        (pin power_in line (at 0 -7.62 90) (length 2.54)
          (name "GND" (effects (font (size 1.27 1.27))))
          (number "2" (effects (font (size 1.27 1.27))))
        )
        (pin power_out line (at 7.62 0 180) (length 2.54)
          (name "OUT" (effects (font (size 1.27 1.27))))
          (number "3" (effects (font (size 1.27 1.27))))
        )
      )
    )
    (symbol "Relay:Relay_SPST-NO" (in_bom yes) (on_board yes)
      (property "Reference" "K" (at 11.43 3.81 0)
        (effects (font (size 1.27 1.27)) (justify left))
      )
      (property "Value" "Relay_SPST-NO" (at 11.43 1.27 0)
        (effects (font (size 1.27 1.27)) (justify left))
      )
      (property "Footprint" "" (at 11.43 -1.27 0)
        (effects (font (size 1.27 1.27)) (justify left) hide)
      )
      (property "Datasheet" "~" (at 0 0 0)
        (effects (font (size 1.27 1.27)) hide)
      )
      (property "ki_keywords" "Single Pole Relay SPST NO" (at 0 0 0)
        (effects (font (size 1.27 1.27)) hide)
      )
      (property "ki_description" "Relay SPST, Normally Open, EN50005" (at 0 0 0)
        (effects (font (size 1.27 1.27)) hide)
      )
      (property "ki_fp_filters" "Relay?SPST*" (at 0 0 0)
        (effects (font (size 1.27 1.27)) hide)
      )
      (symbol "Relay_SPST-NO_0_0"
        (polyline
          (pts
            (xy 7.62 5.08)
            (xy 7.62 2.54)
            (xy 6.985 3.175)
            (xy 7.62 3.81)
          )
          (stroke (width 0) (type default))
          (fill (type none))
        )
      )
      (symbol "Relay_SPST-NO_0_1"
        (rectangle (start -10.16 5.08) (end 10.16 -5.08)
          (stroke (width 0.254) (type default))
          (fill (type background))
        )
        (rectangle (start -8.255 1.905) (end -1.905 -1.905)
          (stroke (width 0.254) (type default))
          (fill (type none))
        )
        (polyline
          (pts
            (xy -7.62 -1.905)
            (xy -2.54 1.905)
          )
          (stroke (width 0.254) (type default))
          (fill (type none))
        )
        (polyline
          (pts
            (xy -5.08 -5.08)
            (xy -5.08 -1.905)
          )
          (stroke (width 0) (type default))
          (fill (type none))
        )
        (polyline
          (pts
            (xy -5.08 5.08)
            (xy -5.08 1.905)
          )
          (stroke (width 0) (type default))
          (fill (type none))
        )
        (polyline
          (pts
            (xy -1.905 0)
            (xy -1.27 0)
          )
          (stroke (width 0.254) (type default))
          (fill (type none))
        )
        (polyline
          (pts
            (xy -0.635 0)
            (xy 0 0)
          )
          (stroke (width 0.254) (type default))
          (fill (type none))
        )
        (polyline
          (pts
            (xy 0.635 0)
            (xy 1.27 0)
          )
          (stroke (width 0.254) (type default))
          (fill (type none))
        )
        (polyline
          (pts
            (xy 1.905 0)
            (xy 2.54 0)
          )
          (stroke (width 0.254) (type default))
          (fill (type none))
        )
        (polyline
          (pts
            (xy 3.175 0)
            (xy 3.81 0)
          )
          (stroke (width 0.254) (type default))
          (fill (type none))
        )
        (polyline
          (pts
            (xy 5.08 -2.54)
            (xy 3.175 3.81)
          )
          (stroke (width 0.508) (type default))
          (fill (type none))
        )
        (polyline
          (pts
            (xy 5.08 -2.54)
            (xy 5.08 -5.08)
          )
          (stroke (width 0) (type default))
          (fill (type none))
        )
      )
      (symbol "Relay_SPST-NO_1_1"
        (pin passive line (at 5.08 -7.62 90) (length 2.54)
          (name "~" (effects (font (size 1.27 1.27))))
          (number "13" (effects (font (size 1.27 1.27))))
        )
        (pin passive line (at 7.62 7.62 270) (length 2.54)
          (name "~" (effects (font (size 1.27 1.27))))
          (number "14" (effects (font (size 1.27 1.27))))
        )
        (pin passive line (at -5.08 7.62 270) (length 2.54)
          (name "~" (effects (font (size 1.27 1.27))))
          (number "A1" (effects (font (size 1.27 1.27))))
        )
        (pin passive line (at -5.08 -7.62 90) (length 2.54)
          (name "~" (effects (font (size 1.27 1.27))))
          (number "A2" (effects (font (size 1.27 1.27))))
        )
      )
    )
    (symbol "power:+BATT" (power) (pin_names (offset 0)) (in_bom yes) (on_board yes)
      (property "Reference" "#PWR" (at 0 -3.81 0)
        (effects (font (size 1.27 1.27)) hide)
      )
      (property "Value" "+BATT" (at 0 3.556 0)
        (effects (font (size 1.27 1.27)))
      )
      (property "Footprint" "" (at 0 0 0)
        (effects (font (size 1.27 1.27)) hide)
      )
      (property "Datasheet" "" (at 0 0 0)
        (effects (font (size 1.27 1.27)) hide)
      )
      (property "ki_keywords" "global power battery" (at 0 0 0)
        (effects (font (size 1.27 1.27)) hide)
      )
      (property "ki_description" "Power symbol creates a global label with name \"+BATT\"" (at 0 0 0)
        (effects (font (size 1.27 1.27)) hide)
      )
      (symbol "+BATT_0_1"
        (polyline
          (pts
            (xy -0.762 1.27)
            (xy 0 2.54)
          )
          (stroke (width 0) (type default))
          (fill (type none))
        )
        (polyline
          (pts
            (xy 0 0)
            (xy 0 2.54)
          )
          (stroke (width 0) (type default))
          (fill (type none))
        )
        (polyline
          (pts
            (xy 0 2.54)
            (xy 0.762 1.27)
          )
          (stroke (width 0) (type default))
          (fill (type none))
        )
      )
      (symbol "+BATT_1_1"
        (pin power_in line (at 0 0 90) (length 0) hide
          (name "+BATT" (effects (font (size 1.27 1.27))))
          (number "1" (effects (font (size 1.27 1.27))))
        )
      )
    )
    (symbol "power:GND" (power) (pin_names (offset 0)) (in_bom yes) (on_board yes)
      (property "Reference" "#PWR" (at 0 -6.35 0)
        (effects (font (size 1.27 1.27)) hide)
      )
      (property "Value" "GND" (at 0 -3.81 0)
        (effects (font (size 1.27 1.27)))
      )
      (property "Footprint" "" (at 0 0 0)
        (effects (font (size 1.27 1.27)) hide)
      )
      (property "Datasheet" "" (at 0 0 0)
        (effects (font (size 1.27 1.27)) hide)
      )
      (property "ki_keywords" "global power" (at 0 0 0)
        (effects (font (size 1.27 1.27)) hide)
      )
      (property "ki_description" "Power symbol creates a global label with name \"GND\" , ground" (at 0 0 0)
        (effects (font (size 1.27 1.27)) hide)
      )
      (symbol "GND_0_1"
        (polyline
          (pts
            (xy 0 0)
            (xy 0 -1.27)
            (xy 1.27 -1.27)
            (xy 0 -2.54)
            (xy -1.27 -1.27)
            (xy 0 -1.27)
          )
          (stroke (width 0) (type default))
          (fill (type none))
        )
      )
      (symbol "GND_1_1"
        (pin power_in line (at 0 0 270) (length 0) hide
          (name "GND" (effects (font (size 1.27 1.27))))
          (number "1" (effects (font (size 1.27 1.27))))
        )
      )
    )
    (symbol "power:PWR_FLAG" (power) (pin_numbers hide) (pin_names (offset 0) hide) (in_bom yes) (on_board yes)
      (property "Reference" "#FLG" (at 0 1.905 0)
        (effects (font (size 1.27 1.27)) hide)
      )
      (property "Value" "PWR_FLAG" (at 0 3.81 0)
        (effects (font (size 1.27 1.27)))
      )
      (property "Footprint" "" (at 0 0 0)
        (effects (font (size 1.27 1.27)) hide)
      )
      (property "Datasheet" "~" (at 0 0 0)
        (effects (font (size 1.27 1.27)) hide)
      )
      (property "ki_keywords" "flag power" (at 0 0 0)
        (effects (font (size 1.27 1.27)) hide)
      )
      (property "ki_description" "Special symbol for telling ERC where power comes from" (at 0 0 0)
        (effects (font (size 1.27 1.27)) hide)
      )
      (symbol "PWR_FLAG_0_0"
        (pin power_out line (at 0 0 90) (length 0)
          (name "pwr" (effects (font (size 1.27 1.27))))
          (number "1" (effects (font (size 1.27 1.27))))
        )
      )
      (symbol "PWR_FLAG_0_1"
        (polyline
          (pts
            (xy 0 0)
            (xy 0 1.27)
            (xy -1.016 1.905)
            (xy 0 2.54)
            (xy 1.016 1.905)
            (xy 0 1.27)
          )
          (stroke (width 0) (type default))
          (fill (type none))
        )
      )
    )
  )

  (junction (at 68.58 45.72) (diameter 0) (color 0 0 0 0)
    (uuid 0172a2c8-b106-49ff-a3e7-366a80846acc)
  )
  (junction (at 81.28 63.5) (diameter 0) (color 0 0 0 0)
    (uuid 04e62ea1-3b58-4d8c-85a6-87db2316f2fe)
  )
  (junction (at 45.72 25.4) (diameter 0) (color 0 0 0 0)
    (uuid 103985c1-0f7f-4370-8dff-d62e3e733910)
  )
  (junction (at 50.8 35.56) (diameter 0) (color 0 0 0 0)
    (uuid 15ecc955-80b3-4bdb-bd88-82d898a37d2e)
  )
  (junction (at 66.04 101.6) (diameter 0) (color 0 0 0 0)
    (uuid 1a5c4d10-a2f5-49bd-947c-e2c19b9049a0)
  )
  (junction (at 154.94 50.8) (diameter 0) (color 0 0 0 0)
    (uuid 2c4b5595-aee2-46b4-90d8-7f4d2a21ee54)
  )
  (junction (at 66.04 73.66) (diameter 0) (color 0 0 0 0)
    (uuid 32fdc507-8103-47cf-beff-9ccab11523fd)
  )
  (junction (at 68.58 101.6) (diameter 0) (color 0 0 0 0)
    (uuid 3578ca55-4d3d-4e8e-86be-cada2bfd8175)
  )
  (junction (at 81.28 91.44) (diameter 0) (color 0 0 0 0)
    (uuid 371bf276-37b3-4d97-827a-6ed5634dae45)
  )
  (junction (at 152.4 60.96) (diameter 0) (color 0 0 0 0)
    (uuid 41383336-ac9d-4421-94b0-a486531b474c)
  )
  (junction (at 152.4 63.5) (diameter 0) (color 0 0 0 0)
    (uuid 41b75796-d110-4061-a293-705e8d2d3c32)
  )
  (junction (at 152.4 33.02) (diameter 0) (color 0 0 0 0)
    (uuid 425c6548-a7b2-4013-a316-8e66070ae5bc)
  )
  (junction (at 55.88 35.56) (diameter 0) (color 0 0 0 0)
    (uuid 44a97e0c-3bc8-4d36-a383-2ad379886271)
  )
  (junction (at 111.76 53.34) (diameter 0) (color 0 0 0 0)
    (uuid 4cc60f73-fb2c-48e8-a1e4-2f327473a258)
  )
  (junction (at 68.58 73.66) (diameter 0) (color 0 0 0 0)
    (uuid 4dbe4b59-f99b-4cc9-a538-5f57b5984cef)
  )
  (junction (at 66.04 45.72) (diameter 0) (color 0 0 0 0)
    (uuid 5cfb8488-4aef-479b-80d2-b41f9982eb07)
  )
  (junction (at 152.4 88.9) (diameter 0) (color 0 0 0 0)
    (uuid 5d72b3f6-6399-48a5-9a96-235a8292f52c)
  )
  (junction (at 81.28 35.56) (diameter 0) (color 0 0 0 0)
    (uuid 5f752f33-e21c-4a8c-b934-43e28c7a5fab)
  )
  (junction (at 152.4 35.56) (diameter 0) (color 0 0 0 0)
    (uuid 6b42898c-d9d8-4478-b845-b17357b23c1d)
  )
  (junction (at 81.28 73.66) (diameter 0) (color 0 0 0 0)
    (uuid 826f60ed-f2c4-4cef-bdba-4d3a7ab5584e)
  )
  (junction (at 55.88 91.44) (diameter 0) (color 0 0 0 0)
    (uuid 8a635434-255e-4ba5-8335-2c9a23527b10)
  )
  (junction (at 81.28 101.6) (diameter 0) (color 0 0 0 0)
    (uuid 9f233d9f-0a0d-4382-91b7-0c2b9ecf56b9)
  )
  (junction (at 152.4 91.44) (diameter 0) (color 0 0 0 0)
    (uuid aaea131b-d3d7-46a6-86f8-ae0639163446)
  )
  (junction (at 50.8 25.4) (diameter 0) (color 0 0 0 0)
    (uuid ce811a7c-a028-4071-ab02-60b62487f441)
  )
  (junction (at 154.94 22.86) (diameter 0) (color 0 0 0 0)
    (uuid d6fbdcf8-d4bc-45b2-af3e-7c056fd3be27)
  )
  (junction (at 50.8 63.5) (diameter 0) (color 0 0 0 0)
    (uuid e8e1022c-ad3e-4a20-aaee-caf81c71b986)
  )
  (junction (at 111.76 25.4) (diameter 0) (color 0 0 0 0)
    (uuid ec23fa4c-fa6d-4b3d-8742-f5ed1376cd2b)
  )
  (junction (at 154.94 78.74) (diameter 0) (color 0 0 0 0)
    (uuid ed52223a-43d4-4cf1-baa2-185663193a9a)
  )
  (junction (at 55.88 63.5) (diameter 0) (color 0 0 0 0)
    (uuid f3ac351c-c742-4217-b90a-d94e97261653)
  )
  (junction (at 81.28 45.72) (diameter 0) (color 0 0 0 0)
    (uuid f65f2231-83dd-4742-a203-e288035e4cc4)
  )

  (wire (pts (xy 66.04 73.66) (xy 66.04 78.74))
    (stroke (width 0) (type default))
    (uuid 00480d03-b09c-48a2-a781-18923c1140b9)
  )
  (wire (pts (xy 81.28 36.83) (xy 81.28 35.56))
    (stroke (width 0) (type default))
    (uuid 01e5a188-856b-408d-866e-8696e75bda73)
  )
  (wire (pts (xy 81.28 91.44) (xy 91.44 91.44))
    (stroke (width 0) (type default))
    (uuid 0a394758-ae37-438e-878c-dda113984b95)
  )
  (wire (pts (xy 154.94 22.86) (xy 154.94 30.48))
    (stroke (width 0) (type default))
    (uuid 0bc22022-1b39-4e78-8df4-df4733105cb7)
  )
  (wire (pts (xy 68.58 43.18) (xy 68.58 45.72))
    (stroke (width 0) (type default))
    (uuid 0bd9d4f3-53d0-4d8c-8e39-32629ad7f08c)
  )
  (wire (pts (xy 154.94 30.48) (xy 160.02 30.48))
    (stroke (width 0) (type default))
    (uuid 1166e4dd-9046-4be3-b5fb-bc9973e5742a)
  )
  (wire (pts (xy 55.88 64.77) (xy 55.88 63.5))
    (stroke (width 0) (type default))
    (uuid 12fda3ac-d069-48fe-9716-b6268ff2e61f)
  )
  (wire (pts (xy 50.8 25.4) (xy 111.76 25.4))
    (stroke (width 0) (type default))
    (uuid 13282c6b-d0b2-41e1-a723-9b3c89258231)
  )
  (wire (pts (xy 81.28 100.33) (xy 81.28 101.6))
    (stroke (width 0) (type default))
    (uuid 14ef591f-bb02-4d64-9a02-598e097ac269)
  )
  (wire (pts (xy 152.4 91.44) (xy 147.32 91.44))
    (stroke (width 0) (type default))
    (uuid 161b4e1c-412d-4ddf-9f98-10b9616eca44)
  )
  (wire (pts (xy 55.88 73.66) (xy 55.88 72.39))
    (stroke (width 0) (type default))
    (uuid 1a3ee0dc-0aaf-4505-a534-d7a275a00ced)
  )
  (wire (pts (xy 121.92 91.44) (xy 132.08 91.44))
    (stroke (width 0) (type default))
    (uuid 1a75f4d4-6bd4-49b9-a6c0-d9afe9d24c57)
  )
  (wire (pts (xy 152.4 91.44) (xy 152.4 88.9))
    (stroke (width 0) (type default))
    (uuid 1d9da6f1-8ba0-448f-8a0d-f11d7b0192bd)
  )
  (wire (pts (xy 154.94 50.8) (xy 160.02 50.8))
    (stroke (width 0) (type default))
    (uuid 1e0db230-f578-4daf-8023-8fea4eee863e)
  )
  (wire (pts (xy 66.04 101.6) (xy 66.04 106.68))
    (stroke (width 0) (type default))
    (uuid 22afc313-39d2-473e-be7a-f9210e00db6d)
  )
  (wire (pts (xy 154.94 50.8) (xy 154.94 58.42))
    (stroke (width 0) (type default))
    (uuid 22b7c912-f100-44ad-ac6c-fcd8e526ff2b)
  )
  (wire (pts (xy 50.8 91.44) (xy 55.88 91.44))
    (stroke (width 0) (type default))
    (uuid 2692f293-7266-4cd5-bf1d-8bddb7ba5345)
  )
  (wire (pts (xy 81.28 35.56) (xy 91.44 35.56))
    (stroke (width 0) (type default))
    (uuid 2d50e14a-25d6-4422-b8d9-c3f6fb4d6b4e)
  )
  (wire (pts (xy 81.28 63.5) (xy 91.44 63.5))
    (stroke (width 0) (type default))
    (uuid 30546799-5933-4183-995d-e61d7a1f05b7)
  )
  (wire (pts (xy 152.4 40.64) (xy 152.4 35.56))
    (stroke (width 0) (type default))
    (uuid 345316dc-531e-45b0-9c76-4edc83802715)
  )
  (wire (pts (xy 147.32 22.86) (xy 154.94 22.86))
    (stroke (width 0) (type default))
    (uuid 35852e97-49bd-4634-95c6-60549126647c)
  )
  (wire (pts (xy 152.4 88.9) (xy 152.4 81.28))
    (stroke (width 0) (type default))
    (uuid 35f8b44f-3f8f-4a4e-9b30-6213a99628b3)
  )
  (wire (pts (xy 68.58 71.12) (xy 68.58 73.66))
    (stroke (width 0) (type default))
    (uuid 36f67666-0f12-41ea-be5b-2e0862bc3d7c)
  )
  (wire (pts (xy 81.28 72.39) (xy 81.28 73.66))
    (stroke (width 0) (type default))
    (uuid 38721545-cfbd-457f-aa44-d80e177381ec)
  )
  (wire (pts (xy 76.2 63.5) (xy 81.28 63.5))
    (stroke (width 0) (type default))
    (uuid 3ea985b6-a76f-4d7e-b04a-f2929d8203bb)
  )
  (wire (pts (xy 68.58 73.66) (xy 81.28 73.66))
    (stroke (width 0) (type default))
    (uuid 4133f5ea-1ce0-4783-922b-4193fbecf734)
  )
  (wire (pts (xy 50.8 35.56) (xy 55.88 35.56))
    (stroke (width 0) (type default))
    (uuid 449f87b8-8fc8-48f9-93ff-6e6d1e3588f1)
  )
  (wire (pts (xy 152.4 35.56) (xy 147.32 35.56))
    (stroke (width 0) (type default))
    (uuid 47da7911-0ab5-4aff-bb7b-733d24e419f6)
  )
  (wire (pts (xy 25.4 27.94) (xy 25.4 30.48))
    (stroke (width 0) (type default))
    (uuid 484e6ee9-e2ee-4c6d-8c63-21b1d6ae28c5)
  )
  (wire (pts (xy 111.76 81.28) (xy 116.84 81.28))
    (stroke (width 0) (type default))
    (uuid 4a116b3f-8e30-44b5-a34d-d60264b06106)
  )
  (wire (pts (xy 25.4 25.4) (xy 30.48 25.4))
    (stroke (width 0) (type default))
    (uuid 4bf964ae-5b53-4d6e-8f4e-4a57e38929f8)
  )
  (wire (pts (xy 76.2 35.56) (xy 81.28 35.56))
    (stroke (width 0) (type default))
    (uuid 4c7e1c6a-956d-4a83-b190-f1aff0512f14)
  )
  (wire (pts (xy 55.88 45.72) (xy 55.88 44.45))
    (stroke (width 0) (type default))
    (uuid 4ed87fc1-4d2f-4e43-80ed-f01f6f757099)
  )
  (wire (pts (xy 152.4 53.34) (xy 160.02 53.34))
    (stroke (width 0) (type default))
    (uuid 531123e7-76b5-446d-8b02-8aa179bc0863)
  )
  (wire (pts (xy 55.88 101.6) (xy 55.88 100.33))
    (stroke (width 0) (type default))
    (uuid 56641883-3a72-425a-b39a-9c7e91832244)
  )
  (wire (pts (xy 81.28 44.45) (xy 81.28 45.72))
    (stroke (width 0) (type default))
    (uuid 584cf413-06df-442b-85b8-88812e01ac30)
  )
  (wire (pts (xy 81.28 92.71) (xy 81.28 91.44))
    (stroke (width 0) (type default))
    (uuid 5e337fc0-770c-41ee-99e7-5c3609994d06)
  )
  (wire (pts (xy 45.72 25.4) (xy 50.8 25.4))
    (stroke (width 0) (type default))
    (uuid 64a5cff7-573f-4fba-86fc-cb91d495475c)
  )
  (wire (pts (xy 147.32 50.8) (xy 154.94 50.8))
    (stroke (width 0) (type default))
    (uuid 69110a2f-8fca-4fea-a8a0-83e14f18bd0b)
  )
  (wire (pts (xy 50.8 35.56) (xy 50.8 63.5))
    (stroke (width 0) (type default))
    (uuid 69e19523-56d6-4969-89d7-190070f21d60)
  )
  (wire (pts (xy 121.92 63.5) (xy 132.08 63.5))
    (stroke (width 0) (type default))
    (uuid 69e90617-8b34-45a3-9728-1273a09aed1f)
  )
  (wire (pts (xy 68.58 99.06) (xy 68.58 101.6))
    (stroke (width 0) (type default))
    (uuid 6a73dc92-3de7-4e52-970f-e622d5f15ebf)
  )
  (wire (pts (xy 111.76 25.4) (xy 111.76 53.34))
    (stroke (width 0) (type default))
    (uuid 6ff030ec-7100-406e-83d5-063231ea6a93)
  )
  (wire (pts (xy 124.46 81.28) (xy 132.08 81.28))
    (stroke (width 0) (type default))
    (uuid 733b77b1-3fe4-4721-a083-713e33d133b9)
  )
  (wire (pts (xy 124.46 53.34) (xy 132.08 53.34))
    (stroke (width 0) (type default))
    (uuid 751d5566-9ef6-49d0-88d8-e8f7abe29092)
  )
  (wire (pts (xy 55.88 101.6) (xy 66.04 101.6))
    (stroke (width 0) (type default))
    (uuid 758ee63e-02c7-4cde-87ee-63efe2af15dd)
  )
  (wire (pts (xy 152.4 60.96) (xy 152.4 53.34))
    (stroke (width 0) (type default))
    (uuid 77b0b12d-603e-4e83-874a-010a80324e7a)
  )
  (wire (pts (xy 124.46 25.4) (xy 132.08 25.4))
    (stroke (width 0) (type default))
    (uuid 77fa2902-7fa4-4c01-a6d5-fec2d1c8e938)
  )
  (wire (pts (xy 154.94 22.86) (xy 160.02 22.86))
    (stroke (width 0) (type default))
    (uuid 7e2ec1ab-2c16-44f3-ab90-0e5bef8a0723)
  )
  (wire (pts (xy 152.4 96.52) (xy 152.4 91.44))
    (stroke (width 0) (type default))
    (uuid 816860ad-628c-448d-915c-c689a7f132b1)
  )
  (wire (pts (xy 68.58 101.6) (xy 66.04 101.6))
    (stroke (width 0) (type default))
    (uuid 85c6b38a-81b4-44fc-a3e3-8c8fb35f77e7)
  )
  (wire (pts (xy 50.8 25.4) (xy 50.8 35.56))
    (stroke (width 0) (type default))
    (uuid 86e053af-b0df-400d-a7aa-26f5dedb5ad0)
  )
  (wire (pts (xy 152.4 33.02) (xy 152.4 25.4))
    (stroke (width 0) (type default))
    (uuid 897fb3b4-e977-4fdd-9350-8340cb4e8e20)
  )
  (wire (pts (xy 81.28 64.77) (xy 81.28 63.5))
    (stroke (width 0) (type default))
    (uuid 89b7958a-7da8-4478-8d80-c4761a87f951)
  )
  (wire (pts (xy 152.4 35.56) (xy 152.4 33.02))
    (stroke (width 0) (type default))
    (uuid 925736ec-436c-4460-a9a9-a2bf7f4b4d72)
  )
  (wire (pts (xy 38.1 25.4) (xy 45.72 25.4))
    (stroke (width 0) (type default))
    (uuid 9839161d-c660-4fa4-bbe7-ad26d3a971e5)
  )
  (wire (pts (xy 152.4 81.28) (xy 160.02 81.28))
    (stroke (width 0) (type default))
    (uuid 99a1daaa-ba50-4a5c-9c9d-cd6664485a41)
  )
  (wire (pts (xy 91.44 73.66) (xy 91.44 66.04))
    (stroke (width 0) (type default))
    (uuid 9cb1574e-cdee-4a15-8816-9656137407c9)
  )
  (wire (pts (xy 81.28 45.72) (xy 91.44 45.72))
    (stroke (width 0) (type default))
    (uuid 9fa244bf-1f14-4efa-8cb8-07ff6a664ac6)
  )
  (wire (pts (xy 111.76 25.4) (xy 116.84 25.4))
    (stroke (width 0) (type default))
    (uuid b0446eba-00d1-4146-9393-5cc24b5d250c)
  )
  (wire (pts (xy 68.58 73.66) (xy 66.04 73.66))
    (stroke (width 0) (type default))
    (uuid b0676165-2b62-442b-b50c-6dbb82f59117)
  )
  (wire (pts (xy 152.4 33.02) (xy 160.02 33.02))
    (stroke (width 0) (type default))
    (uuid b1a458cd-59e9-40c7-87ce-48c73d8af609)
  )
  (wire (pts (xy 152.4 25.4) (xy 160.02 25.4))
    (stroke (width 0) (type default))
    (uuid b2008d16-9d08-4cf8-9c6d-fab4ab600117)
  )
  (wire (pts (xy 50.8 63.5) (xy 55.88 63.5))
    (stroke (width 0) (type default))
    (uuid b2ffc578-ff47-4ee0-b737-adf92eb8e837)
  )
  (wire (pts (xy 152.4 63.5) (xy 147.32 63.5))
    (stroke (width 0) (type default))
    (uuid b3e83527-5392-40aa-9bb0-097c4c1d3359)
  )
  (wire (pts (xy 66.04 45.72) (xy 66.04 50.8))
    (stroke (width 0) (type default))
    (uuid b54a0e85-1853-4369-b9c8-d71881117739)
  )
  (wire (pts (xy 55.88 91.44) (xy 60.96 91.44))
    (stroke (width 0) (type default))
    (uuid bc788ba5-947a-433e-9c7a-adb1425b4362)
  )
  (wire (pts (xy 55.88 36.83) (xy 55.88 35.56))
    (stroke (width 0) (type default))
    (uuid be07fa19-0a34-4b02-ab57-d367e0445ea5)
  )
  (wire (pts (xy 154.94 58.42) (xy 160.02 58.42))
    (stroke (width 0) (type default))
    (uuid bfc7ddee-631b-43cb-8c35-29e378660d5e)
  )
  (wire (pts (xy 68.58 101.6) (xy 81.28 101.6))
    (stroke (width 0) (type default))
    (uuid c0cb868e-f434-45ef-bf08-bce939bec69e)
  )
  (wire (pts (xy 68.58 45.72) (xy 81.28 45.72))
    (stroke (width 0) (type default))
    (uuid c1986e64-fe60-4300-aa8f-317aa5180288)
  )
  (wire (pts (xy 154.94 78.74) (xy 154.94 86.36))
    (stroke (width 0) (type default))
    (uuid c2270f45-9d5a-4460-a654-94bcbe317639)
  )
  (wire (pts (xy 91.44 101.6) (xy 91.44 93.98))
    (stroke (width 0) (type default))
    (uuid c60eb491-2863-4eed-9521-3cb33ea43e2d)
  )
  (wire (pts (xy 152.4 63.5) (xy 152.4 60.96))
    (stroke (width 0) (type default))
    (uuid c6d163ff-54b5-4b20-a247-3009fec8af02)
  )
  (wire (pts (xy 152.4 60.96) (xy 160.02 60.96))
    (stroke (width 0) (type default))
    (uuid c6f7dd34-34c6-4490-8bd1-dee70d823ec1)
  )
  (wire (pts (xy 152.4 88.9) (xy 160.02 88.9))
    (stroke (width 0) (type default))
    (uuid c97b6522-fb11-42d4-898c-cbe8fea41ed7)
  )
  (wire (pts (xy 111.76 53.34) (xy 116.84 53.34))
    (stroke (width 0) (type default))
    (uuid cec69c34-16da-4d37-ae91-2cc0d3fb646a)
  )
  (wire (pts (xy 111.76 53.34) (xy 111.76 81.28))
    (stroke (width 0) (type default))
    (uuid d2fbcdb2-2220-4faf-b157-0b6656f8ded1)
  )
  (wire (pts (xy 55.88 45.72) (xy 66.04 45.72))
    (stroke (width 0) (type default))
    (uuid d3750db4-b105-4c63-b62d-34e1b9065a96)
  )
  (wire (pts (xy 154.94 86.36) (xy 160.02 86.36))
    (stroke (width 0) (type default))
    (uuid d3cc9b0d-d14d-4d67-96af-6b3ed77414b7)
  )
  (wire (pts (xy 55.88 35.56) (xy 60.96 35.56))
    (stroke (width 0) (type default))
    (uuid d68fbdf3-abeb-41cf-9123-9c1a765fe6f9)
  )
  (wire (pts (xy 154.94 78.74) (xy 160.02 78.74))
    (stroke (width 0) (type default))
    (uuid d79d435d-c19e-4299-afa0-243f588938cd)
  )
  (wire (pts (xy 91.44 45.72) (xy 91.44 38.1))
    (stroke (width 0) (type default))
    (uuid dcd7ee12-5092-4b95-b658-c8e35760eba4)
  )
  (wire (pts (xy 50.8 127) (xy 58.42 127))
    (stroke (width 0) (type default))
    (uuid e286e499-3800-458b-a467-1fb51967a80a)
  )
  (wire (pts (xy 81.28 73.66) (xy 91.44 73.66))
    (stroke (width 0) (type default))
    (uuid e4f3246d-ec9b-443c-9cd9-64940f2ac29a)
  )
  (wire (pts (xy 55.88 92.71) (xy 55.88 91.44))
    (stroke (width 0) (type default))
    (uuid e72b8d18-c1a0-49d3-b88d-5fa0d9f93d03)
  )
  (wire (pts (xy 81.28 101.6) (xy 91.44 101.6))
    (stroke (width 0) (type default))
    (uuid e7c40371-c59e-47c1-a105-253af7a674d5)
  )
  (wire (pts (xy 50.8 129.54) (xy 58.42 129.54))
    (stroke (width 0) (type default))
    (uuid eebebd86-f526-4d38-856f-c4fa122dd069)
  )
  (wire (pts (xy 68.58 45.72) (xy 66.04 45.72))
    (stroke (width 0) (type default))
    (uuid ef7f22fe-7ab5-454a-a62c-59e545e3fbc8)
  )
  (wire (pts (xy 76.2 91.44) (xy 81.28 91.44))
    (stroke (width 0) (type default))
    (uuid f224c610-f04a-433f-90a1-97ba030300ca)
  )
  (wire (pts (xy 147.32 78.74) (xy 154.94 78.74))
    (stroke (width 0) (type default))
    (uuid f62f0118-6c65-4d45-be16-6a9af8fe48f7)
  )
  (wire (pts (xy 55.88 63.5) (xy 60.96 63.5))
    (stroke (width 0) (type default))
    (uuid f893bf95-6127-4109-858f-d58480311a08)
  )
  (wire (pts (xy 152.4 68.58) (xy 152.4 63.5))
    (stroke (width 0) (type default))
    (uuid f8d4c900-19dd-490f-ade9-4fe7be549cb9)
  )
  (wire (pts (xy 45.72 22.86) (xy 45.72 25.4))
    (stroke (width 0) (type default))
    (uuid fa3578ee-c1fe-41c7-9900-b1fa4ef2f176)
  )
  (wire (pts (xy 55.88 73.66) (xy 66.04 73.66))
    (stroke (width 0) (type default))
    (uuid fcc9bb63-3528-4cf6-b315-8a5a3fa8381e)
  )
  (wire (pts (xy 121.92 35.56) (xy 132.08 35.56))
    (stroke (width 0) (type default))
    (uuid fd226bad-0e0f-4db4-a2f2-93c426bd2614)
  )
  (wire (pts (xy 50.8 63.5) (xy 50.8 91.44))
    (stroke (width 0) (type default))
    (uuid fe879a10-debf-46f2-ac0c-678d8885cfde)
  )

  (label "E_switch" (at 121.92 63.5 0) (fields_autoplaced)
    (effects (font (size 1.27 1.27)) (justify left bottom))
    (uuid 01847922-15e6-4f72-94a4-293eba776778)
  )
  (label "+5VC" (at 83.82 91.44 0) (fields_autoplaced)
    (effects (font (size 1.27 1.27)) (justify left bottom))
    (uuid 1efa9def-4d48-475d-b4ec-99c9f434969f)
  )
  (label "E_switch" (at 121.92 91.44 0) (fields_autoplaced)
    (effects (font (size 1.27 1.27)) (justify left bottom))
    (uuid 34d71f3a-0c52-4ce7-b806-73565dec031b)
  )
  (label "+5VB" (at 83.82 63.5 0) (fields_autoplaced)
    (effects (font (size 1.27 1.27)) (justify left bottom))
    (uuid 7e0831b2-5b8a-42e8-a05f-73160c6b74a6)
  )
  (label "E_switch" (at 121.92 35.56 0) (fields_autoplaced)
    (effects (font (size 1.27 1.27)) (justify left bottom))
    (uuid a3e0e1e8-06eb-46e9-a88b-254eebbfbba0)
  )
  (label "E_switch" (at 58.42 129.54 180) (fields_autoplaced)
    (effects (font (size 1.27 1.27)) (justify right bottom))
    (uuid b321d481-e1c9-4bf3-bbb8-68675da4d54b)
  )
  (label "+5VA" (at 83.82 35.56 0) (fields_autoplaced)
    (effects (font (size 1.27 1.27)) (justify left bottom))
    (uuid c9a47957-714b-441f-a09d-915b596f141f)
  )
  (label "+5VA" (at 58.42 127 180) (fields_autoplaced)
    (effects (font (size 1.27 1.27)) (justify right bottom))
    (uuid d068f1f4-c723-4561-8188-4bc15ea44074)
  )

  (symbol (lib_id "Device:Fuse") (at 120.65 25.4 90) (unit 1)
    (in_bom yes) (on_board yes) (dnp no) (fields_autoplaced)
    (uuid 09fb6607-1c0a-490b-94fe-dd606c9777c2)
    (property "Reference" "F2" (at 120.65 19.431 90)
      (effects (font (size 1.27 1.27)))
    )
    (property "Value" "7A5" (at 120.65 21.971 90)
      (effects (font (size 1.27 1.27)))
    )
    (property "Footprint" "Fuse:Fuseholder_Blade_ATO_Littelfuse_Pudenz_2_Pin" (at 120.65 27.178 90)
      (effects (font (size 1.27 1.27)) hide)
    )
    (property "Datasheet" "~" (at 120.65 25.4 0)
      (effects (font (size 1.27 1.27)) hide)
    )
    (pin "2" (uuid 436939b2-c74f-4959-8dbd-81165e900e68))
    (pin "1" (uuid 9dfcd84a-3c4b-4a30-b60d-6bfaa0d2b16d))
    (instances
      (project "rover-power-distribution"
        (path "/9114eb76-cc2f-406a-9f2d-aff6b30a47d1"
          (reference "F2") (unit 1)
        )
      )
    )
  )

  (symbol (lib_id "power:+BATT") (at 45.72 22.86 0) (unit 1)
    (in_bom yes) (on_board yes) (dnp no) (fields_autoplaced)
    (uuid 200b2ab9-9a38-49ce-9bcb-986e61ed8fdd)
    (property "Reference" "#PWR014" (at 45.72 26.67 0)
      (effects (font (size 1.27 1.27)) hide)
    )
    (property "Value" "+BATT" (at 45.72 17.78 0)
      (effects (font (size 1.27 1.27)))
    )
    (property "Footprint" "" (at 45.72 22.86 0)
      (effects (font (size 1.27 1.27)) hide)
    )
    (property "Datasheet" "" (at 45.72 22.86 0)
      (effects (font (size 1.27 1.27)) hide)
    )
    (pin "1" (uuid bc11c096-ee5b-4509-bf8a-9de59e49386a))
    (instances
      (project "rover-power-distribution"
        (path "/9114eb76-cc2f-406a-9f2d-aff6b30a47d1"
          (reference "#PWR014") (unit 1)
        )
      )
    )
  )

  (symbol (lib_id "Connector:Screw_Terminal_01x02") (at 165.1 58.42 0) (unit 1)
    (in_bom yes) (on_board yes) (dnp no) (fields_autoplaced)
    (uuid 242e3670-7777-4992-aa86-338d0e30ea57)
    (property "Reference" "J5" (at 167.64 58.42 0)
      (effects (font (size 1.27 1.27)) (justify left))
    )
    (property "Value" "M3" (at 167.64 60.96 0)
      (effects (font (size 1.27 1.27)) (justify left))
    )
    (property "Footprint" "TerminalBlock:TerminalBlock_Wuerth_691311400102_P7.62mm" (at 165.1 58.42 0)
      (effects (font (size 1.27 1.27)) hide)
    )
    (property "Datasheet" "~" (at 165.1 58.42 0)
      (effects (font (size 1.27 1.27)) hide)
    )
    (pin "1" (uuid d1c24447-2fde-4a67-98fe-339e50c47a24))
    (pin "2" (uuid 5e0497f8-b95a-44ee-a7e5-e9826a25c903))
    (instances
      (project "rover-power-distribution"
        (path "/9114eb76-cc2f-406a-9f2d-aff6b30a47d1"
          (reference "J5") (unit 1)
        )
      )
    )
  )

  (symbol (lib_id "power:GND") (at 152.4 68.58 0) (unit 1)
    (in_bom yes) (on_board yes) (dnp no) (fields_autoplaced)
    (uuid 2c871893-a9ff-4c2e-9ce9-74591df9b054)
    (property "Reference" "#PWR03" (at 152.4 74.93 0)
      (effects (font (size 1.27 1.27)) hide)
    )
    (property "Value" "GND" (at 152.4 73.66 0)
      (effects (font (size 1.27 1.27)))
    )
    (property "Footprint" "" (at 152.4 68.58 0)
      (effects (font (size 1.27 1.27)) hide)
    )
    (property "Datasheet" "" (at 152.4 68.58 0)
      (effects (font (size 1.27 1.27)) hide)
    )
    (pin "1" (uuid 4cf13a9c-2b26-4b79-bab5-e806d0108604))
    (instances
      (project "rover-power-distribution"
        (path "/9114eb76-cc2f-406a-9f2d-aff6b30a47d1"
          (reference "#PWR03") (unit 1)
        )
      )
    )
  )

  (symbol (lib_id "Connector:Screw_Terminal_01x02") (at 165.1 22.86 0) (unit 1)
    (in_bom yes) (on_board yes) (dnp no) (fields_autoplaced)
    (uuid 2d25058b-1b54-4274-a9ba-72a43cfd7bc1)
    (property "Reference" "J2" (at 167.64 22.86 0)
      (effects (font (size 1.27 1.27)) (justify left))
    )
    (property "Value" "M0" (at 167.64 25.4 0)
      (effects (font (size 1.27 1.27)) (justify left))
    )
    (property "Footprint" "TerminalBlock:TerminalBlock_Wuerth_691311400102_P7.62mm" (at 165.1 22.86 0)
      (effects (font (size 1.27 1.27)) hide)
    )
    (property "Datasheet" "~" (at 165.1 22.86 0)
      (effects (font (size 1.27 1.27)) hide)
    )
    (pin "1" (uuid 33a635d3-7fcd-421a-8706-dadeaa6a519a))
    (pin "2" (uuid f6a3926c-a767-436a-8793-cf94840edebb))
    (instances
      (project "rover-power-distribution"
        (path "/9114eb76-cc2f-406a-9f2d-aff6b30a47d1"
          (reference "J2") (unit 1)
        )
      )
    )
  )

  (symbol (lib_id "Device:Fuse") (at 120.65 53.34 90) (unit 1)
    (in_bom yes) (on_board yes) (dnp no) (fields_autoplaced)
    (uuid 2f517aa3-9178-4758-849b-09c5d072cfb2)
    (property "Reference" "F3" (at 120.65 47.371 90)
      (effects (font (size 1.27 1.27)))
    )
    (property "Value" "7A5" (at 120.65 49.911 90)
      (effects (font (size 1.27 1.27)))
    )
    (property "Footprint" "Fuse:Fuseholder_Blade_ATO_Littelfuse_Pudenz_2_Pin" (at 120.65 55.118 90)
      (effects (font (size 1.27 1.27)) hide)
    )
    (property "Datasheet" "~" (at 120.65 53.34 0)
      (effects (font (size 1.27 1.27)) hide)
    )
    (pin "2" (uuid 9b36eb55-3273-4e0d-838c-86ec8ed69f2a))
    (pin "1" (uuid 6e9ebe67-cb3f-4b27-b004-2d6fb3de16b3))
    (instances
      (project "rover-power-distribution"
        (path "/9114eb76-cc2f-406a-9f2d-aff6b30a47d1"
          (reference "F3") (unit 1)
        )
      )
    )
  )

  (symbol (lib_id "power:GND") (at 152.4 96.52 0) (unit 1)
    (in_bom yes) (on_board yes) (dnp no) (fields_autoplaced)
    (uuid 36419dba-c750-4d1f-b428-c1f610d9d634)
    (property "Reference" "#PWR08" (at 152.4 102.87 0)
      (effects (font (size 1.27 1.27)) hide)
    )
    (property "Value" "GND" (at 152.4 101.6 0)
      (effects (font (size 1.27 1.27)))
    )
    (property "Footprint" "" (at 152.4 96.52 0)
      (effects (font (size 1.27 1.27)) hide)
    )
    (property "Datasheet" "" (at 152.4 96.52 0)
      (effects (font (size 1.27 1.27)) hide)
    )
    (pin "1" (uuid 0a37e2e9-8df8-450f-9149-69184dfa2a7d))
    (instances
      (project "rover-power-distribution"
        (path "/9114eb76-cc2f-406a-9f2d-aff6b30a47d1"
          (reference "#PWR08") (unit 1)
        )
      )
    )
  )

  (symbol (lib_id "Device:C") (at 55.88 68.58 0) (unit 1)
    (in_bom yes) (on_board yes) (dnp no)
    (uuid 39315c84-4d34-43b7-84e9-5e2a543fdc8b)
    (property "Reference" "C3" (at 53.086 66.294 0)
      (effects (font (size 1.27 1.27)) (justify left))
    )
    (property "Value" "330n" (at 50.4444 71.0184 0)
      (effects (font (size 1.27 1.27)) (justify left))
    )
    (property "Footprint" "Capacitor_THT:CP_Radial_D6.3mm_P2.50mm" (at 56.8452 72.39 0)
      (effects (font (size 1.27 1.27)) hide)
    )
    (property "Datasheet" "~" (at 55.88 68.58 0)
      (effects (font (size 1.27 1.27)) hide)
    )
    (pin "1" (uuid 910f5a90-5784-4793-b0e4-7619f925fa1e))
    (pin "2" (uuid 11abc0e5-8675-4db3-865e-83e887fba5cd))
    (instances
      (project "rover-power-distribution"
        (path "/9114eb76-cc2f-406a-9f2d-aff6b30a47d1"
          (reference "C3") (unit 1)
        )
      )
    )
  )

  (symbol (lib_id "Connector:Screw_Terminal_01x02") (at 165.1 78.74 0) (unit 1)
    (in_bom yes) (on_board yes) (dnp no) (fields_autoplaced)
    (uuid 3e3d7b89-a5b0-43ea-9f7b-193361d5f441)
    (property "Reference" "J6" (at 167.64 78.74 0)
      (effects (font (size 1.27 1.27)) (justify left))
    )
    (property "Value" "M4" (at 167.64 81.28 0)
      (effects (font (size 1.27 1.27)) (justify left))
    )
    (property "Footprint" "TerminalBlock:TerminalBlock_Wuerth_691311400102_P7.62mm" (at 165.1 78.74 0)
      (effects (font (size 1.27 1.27)) hide)
    )
    (property "Datasheet" "~" (at 165.1 78.74 0)
      (effects (font (size 1.27 1.27)) hide)
    )
    (pin "1" (uuid f87d2da9-72f4-48f5-92d4-c12e6bce33f9))
    (pin "2" (uuid 830cb8e3-00d7-4545-8d90-e82b77b5f386))
    (instances
      (project "rover-power-distribution"
        (path "/9114eb76-cc2f-406a-9f2d-aff6b30a47d1"
          (reference "J6") (unit 1)
        )
      )
    )
  )

  (symbol (lib_id "Device:C") (at 55.88 96.52 0) (unit 1)
    (in_bom yes) (on_board yes) (dnp no)
    (uuid 4c80a2fc-b4e4-4880-98c0-c6751cf82819)
    (property "Reference" "C5" (at 53.086 94.234 0)
      (effects (font (size 1.27 1.27)) (justify left))
    )
    (property "Value" "330n" (at 50.4444 98.9584 0)
      (effects (font (size 1.27 1.27)) (justify left))
    )
    (property "Footprint" "Capacitor_THT:CP_Radial_D6.3mm_P2.50mm" (at 56.8452 100.33 0)
      (effects (font (size 1.27 1.27)) hide)
    )
    (property "Datasheet" "~" (at 55.88 96.52 0)
      (effects (font (size 1.27 1.27)) hide)
    )
    (pin "1" (uuid ae318a39-635c-4773-a7cb-45f6e9d0504a))
    (pin "2" (uuid d254b5cb-a576-489d-8ef2-9d587dbbab63))
    (instances
      (project "rover-power-distribution"
        (path "/9114eb76-cc2f-406a-9f2d-aff6b30a47d1"
          (reference "C5") (unit 1)
        )
      )
    )
  )

  (symbol (lib_id "Connector:Screw_Terminal_01x02") (at 45.72 127 0) (mirror y) (unit 1)
    (in_bom yes) (on_board yes) (dnp no)
    (uuid 5200da41-0b89-4f36-ade5-2e8faca5b8cf)
    (property "Reference" "J11" (at 42.545 127 0)
      (effects (font (size 1.27 1.27)) (justify left))
    )
    (property "Value" "Emergency Switch" (at 42.545 129.54 0)
      (effects (font (size 1.27 1.27)) (justify left))
    )
    (property "Footprint" "TerminalBlock:TerminalBlock_Wuerth_691311400102_P7.62mm" (at 45.72 127 0)
      (effects (font (size 1.27 1.27)) hide)
    )
    (property "Datasheet" "~" (at 45.72 127 0)
      (effects (font (size 1.27 1.27)) hide)
    )
    (pin "1" (uuid a1764657-0a37-4561-9c31-59b6bc14f660))
    (pin "2" (uuid 4b7fc392-dbe0-49a8-b3bc-7d3cdef8ecce))
    (instances
      (project "rover-power-distribution"
        (path "/9114eb76-cc2f-406a-9f2d-aff6b30a47d1"
          (reference "J11") (unit 1)
        )
      )
    )
  )

  (symbol (lib_id "Connector:Screw_Terminal_01x02") (at 96.52 63.5 0) (unit 1)
    (in_bom yes) (on_board yes) (dnp no)
    (uuid 58f056fd-a0cd-47b5-b44f-8a79f7d5ced1)
    (property "Reference" "J9" (at 99.695 63.5 0)
      (effects (font (size 1.27 1.27)) (justify left))
    )
    (property "Value" "5V out 1" (at 99.695 66.04 0)
      (effects (font (size 1.27 1.27)) (justify left))
    )
    (property "Footprint" "TerminalBlock:TerminalBlock_Wuerth_691311400102_P7.62mm" (at 96.52 63.5 0)
      (effects (font (size 1.27 1.27)) hide)
    )
    (property "Datasheet" "~" (at 96.52 63.5 0)
      (effects (font (size 1.27 1.27)) hide)
    )
    (pin "1" (uuid d70b2f18-63e2-4f6f-b972-066b5e257675))
    (pin "2" (uuid 02902ebf-1ea1-4aad-a96e-aa3d452aa63f))
    (instances
      (project "rover-power-distribution"
        (path "/9114eb76-cc2f-406a-9f2d-aff6b30a47d1"
          (reference "J9") (unit 1)
        )
      )
    )
  )

  (symbol (lib_id "Connector:Screw_Terminal_01x02") (at 96.52 35.56 0) (unit 1)
    (in_bom yes) (on_board yes) (dnp no)
    (uuid 61245b0b-db3a-402f-af8b-107d3d18ada6)
    (property "Reference" "J8" (at 99.695 35.56 0)
      (effects (font (size 1.27 1.27)) (justify left))
    )
    (property "Value" "5V out 0" (at 99.695 38.1 0)
      (effects (font (size 1.27 1.27)) (justify left))
    )
    (property "Footprint" "TerminalBlock:TerminalBlock_Wuerth_691311400102_P7.62mm" (at 96.52 35.56 0)
      (effects (font (size 1.27 1.27)) hide)
    )
    (property "Datasheet" "~" (at 96.52 35.56 0)
      (effects (font (size 1.27 1.27)) hide)
    )
    (pin "1" (uuid ff4552c3-d486-4aff-a29b-38e0706b0b6b))
    (pin "2" (uuid b00d9e61-44c1-4bdc-9f71-48a1d7c83153))
    (instances
      (project "rover-power-distribution"
        (path "/9114eb76-cc2f-406a-9f2d-aff6b30a47d1"
          (reference "J8") (unit 1)
        )
      )
    )
  )

  (symbol (lib_id "power:GND") (at 66.04 50.8 0) (unit 1)
    (in_bom yes) (on_board yes) (dnp no)
    (uuid 6f06e5b0-c083-4580-af9a-26b6ccdc2be5)
    (property "Reference" "#PWR05" (at 66.04 57.15 0)
      (effects (font (size 1.27 1.27)) hide)
    )
    (property "Value" "GND" (at 66.04 54.4068 0)
      (effects (font (size 1.27 1.27)))
    )
    (property "Footprint" "" (at 66.04 50.8 0)
      (effects (font (size 1.27 1.27)) hide)
    )
    (property "Datasheet" "" (at 66.04 50.8 0)
      (effects (font (size 1.27 1.27)) hide)
    )
    (pin "1" (uuid 31e1197f-3570-4661-a674-01d2474b5f49))
    (instances
      (project "rover-power-distribution"
        (path "/9114eb76-cc2f-406a-9f2d-aff6b30a47d1"
          (reference "#PWR05") (unit 1)
        )
      )
    )
  )

  (symbol (lib_id "power:PWR_FLAG") (at 33.02 152.4 0) (unit 1)
    (in_bom yes) (on_board yes) (dnp no) (fields_autoplaced)
    (uuid 6fa55a93-786f-49fd-860f-8458271e6218)
    (property "Reference" "#FLG01" (at 33.02 150.495 0)
      (effects (font (size 1.27 1.27)) hide)
    )
    (property "Value" "PWR_FLAG" (at 33.02 147.32 0)
      (effects (font (size 1.27 1.27)))
    )
    (property "Footprint" "" (at 33.02 152.4 0)
      (effects (font (size 1.27 1.27)) hide)
    )
    (property "Datasheet" "~" (at 33.02 152.4 0)
      (effects (font (size 1.27 1.27)) hide)
    )
    (pin "1" (uuid 347f6362-399f-4793-a2f9-1c2fd08850ee))
    (instances
      (project "rover-power-distribution"
        (path "/9114eb76-cc2f-406a-9f2d-aff6b30a47d1"
          (reference "#FLG01") (unit 1)
        )
      )
    )
  )

  (symbol (lib_id "Connector:Screw_Terminal_01x02") (at 165.1 30.48 0) (unit 1)
    (in_bom yes) (on_board yes) (dnp no) (fields_autoplaced)
    (uuid 72b88cee-fed2-40b9-9fad-9d13ee41e366)
    (property "Reference" "J3" (at 167.64 30.48 0)
      (effects (font (size 1.27 1.27)) (justify left))
    )
    (property "Value" "M1" (at 167.64 33.02 0)
      (effects (font (size 1.27 1.27)) (justify left))
    )
    (property "Footprint" "TerminalBlock:TerminalBlock_Wuerth_691311400102_P7.62mm" (at 165.1 30.48 0)
      (effects (font (size 1.27 1.27)) hide)
    )
    (property "Datasheet" "~" (at 165.1 30.48 0)
      (effects (font (size 1.27 1.27)) hide)
    )
    (pin "1" (uuid 70f82930-010c-4e37-8496-4849f8059232))
    (pin "2" (uuid b1b23354-bb0d-4257-a85d-bebe0d35dc44))
    (instances
      (project "rover-power-distribution"
        (path "/9114eb76-cc2f-406a-9f2d-aff6b30a47d1"
          (reference "J3") (unit 1)
        )
      )
    )
  )

  (symbol (lib_id "Regulator_Linear:L7805") (at 68.58 91.44 0) (unit 1)
    (in_bom yes) (on_board yes) (dnp no) (fields_autoplaced)
    (uuid 7bfbc6bd-959f-44e5-b38b-9214826a7227)
    (property "Reference" "U3" (at 68.58 84.328 0)
      (effects (font (size 1.27 1.27)))
    )
    (property "Value" "L7805" (at 68.58 86.868 0)
      (effects (font (size 1.27 1.27)))
    )
    (property "Footprint" "Package_TO_SOT_THT:TO-220-3_Vertical" (at 69.215 95.25 0)
      (effects (font (size 1.27 1.27) italic) (justify left) hide)
    )
    (property "Datasheet" "http://www.st.com/content/ccc/resource/technical/document/datasheet/41/4f/b3/b0/12/d4/47/88/CD00000444.pdf/files/CD00000444.pdf/jcr:content/translations/en.CD00000444.pdf" (at 68.58 92.71 0)
      (effects (font (size 1.27 1.27)) hide)
    )
    (pin "3" (uuid a2cb4dd4-732a-4dda-9d83-521f19b97ed1))
    (pin "2" (uuid 5b27d82d-8dfb-4595-999a-ca6d4fe530f1))
    (pin "1" (uuid ba5026a8-437c-4c09-880c-d094fb2986ee))
    (instances
      (project "rover-power-distribution"
        (path "/9114eb76-cc2f-406a-9f2d-aff6b30a47d1"
          (reference "U3") (unit 1)
        )
      )
    )
  )

  (symbol (lib_id "Relay:Relay_SPST-NO") (at 139.7 86.36 270) (mirror x) (unit 1)
    (in_bom yes) (on_board yes) (dnp no)
    (uuid 7e9db2db-9d6f-4636-ab1a-254e99c0cba3)
    (property "Reference" "K3" (at 139.7 71.12 90)
      (effects (font (size 1.27 1.27)) hide)
    )
    (property "Value" "Relay_SPST-NO" (at 139.7 73.66 90)
      (effects (font (size 1.27 1.27)))
    )
    (property "Footprint" "Relay_THT:Relay_1P1T_NO_10x24x18.8mm_Panasonic_ADW11xxxxW_THT" (at 138.43 74.93 0)
      (effects (font (size 1.27 1.27)) (justify left) hide)
    )
    (property "Datasheet" "~" (at 139.7 86.36 0)
      (effects (font (size 1.27 1.27)) hide)
    )
    (pin "13" (uuid 45a0279f-79f8-4912-8f4c-59230a9f3ab7))
    (pin "A2" (uuid 72185b38-2913-443d-ae2a-7850f064f94e))
    (pin "14" (uuid 74b792c6-1c14-446e-961d-b750c6d7e07b))
    (pin "A1" (uuid 64a1e68a-7a3a-49c2-9008-b235825553cb))
    (instances
      (project "rover-power-distribution"
        (path "/9114eb76-cc2f-406a-9f2d-aff6b30a47d1"
          (reference "K3") (unit 1)
        )
      )
    )
  )

  (symbol (lib_id "power:GND") (at 152.4 40.64 0) (unit 1)
    (in_bom yes) (on_board yes) (dnp no) (fields_autoplaced)
    (uuid 88b76c91-7050-4d83-8454-e7c930dea491)
    (property "Reference" "#PWR06" (at 152.4 46.99 0)
      (effects (font (size 1.27 1.27)) hide)
    )
    (property "Value" "GND" (at 152.4 45.72 0)
      (effects (font (size 1.27 1.27)) hide)
    )
    (property "Footprint" "" (at 152.4 40.64 0)
      (effects (font (size 1.27 1.27)) hide)
    )
    (property "Datasheet" "" (at 152.4 40.64 0)
      (effects (font (size 1.27 1.27)) hide)
    )
    (pin "1" (uuid 7a78ee93-843e-4580-9bf2-a784a1fc7380))
    (instances
      (project "rover-power-distribution"
        (path "/9114eb76-cc2f-406a-9f2d-aff6b30a47d1"
          (reference "#PWR06") (unit 1)
        )
      )
    )
  )

  (symbol (lib_id "power:GND") (at 33.02 152.4 0) (unit 1)
    (in_bom yes) (on_board yes) (dnp no) (fields_autoplaced)
    (uuid 91f743fd-e797-442d-9a24-a575f33384bf)
    (property "Reference" "#PWR011" (at 33.02 158.75 0)
      (effects (font (size 1.27 1.27)) hide)
    )
    (property "Value" "GND" (at 33.02 157.48 0)
      (effects (font (size 1.27 1.27)))
    )
    (property "Footprint" "" (at 33.02 152.4 0)
      (effects (font (size 1.27 1.27)) hide)
    )
    (property "Datasheet" "" (at 33.02 152.4 0)
      (effects (font (size 1.27 1.27)) hide)
    )
    (pin "1" (uuid 56e5c639-36d5-4b94-94db-6492f4905df6))
    (instances
      (project "rover-power-distribution"
        (path "/9114eb76-cc2f-406a-9f2d-aff6b30a47d1"
          (reference "#PWR011") (unit 1)
        )
      )
    )
  )

  (symbol (lib_id "Regulator_Linear:L7805") (at 68.58 35.56 0) (unit 1)
    (in_bom yes) (on_board yes) (dnp no) (fields_autoplaced)
    (uuid 9cf2b693-1db3-4665-820d-782fcbafd350)
    (property "Reference" "U1" (at 68.58 28.448 0)
      (effects (font (size 1.27 1.27)))
    )
    (property "Value" "L7805" (at 68.58 30.988 0)
      (effects (font (size 1.27 1.27)))
    )
    (property "Footprint" "Package_TO_SOT_THT:TO-220-3_Vertical" (at 69.215 39.37 0)
      (effects (font (size 1.27 1.27) italic) (justify left) hide)
    )
    (property "Datasheet" "http://www.st.com/content/ccc/resource/technical/document/datasheet/41/4f/b3/b0/12/d4/47/88/CD00000444.pdf/files/CD00000444.pdf/jcr:content/translations/en.CD00000444.pdf" (at 68.58 36.83 0)
      (effects (font (size 1.27 1.27)) hide)
    )
    (pin "3" (uuid 6e06922d-9af0-4c3e-848d-d38ebf8bd906))
    (pin "2" (uuid 93332840-d1f0-4ecc-bb64-f8d679258834))
    (pin "1" (uuid 0d2e2a55-1b30-401d-a68b-70b9e60ba394))
    (instances
      (project "rover-power-distribution"
        (path "/9114eb76-cc2f-406a-9f2d-aff6b30a47d1"
          (reference "U1") (unit 1)
        )
      )
    )
  )

  (symbol (lib_id "Relay:Relay_SPST-NO") (at 139.7 30.48 270) (mirror x) (unit 1)
    (in_bom yes) (on_board yes) (dnp no)
    (uuid a1b2ee8f-ef0d-4753-9ce6-24fa244c2121)
    (property "Reference" "K1" (at 139.7 15.24 90)
      (effects (font (size 1.27 1.27)))
    )
    (property "Value" "Relay_SPST-NO" (at 139.7 17.78 90)
      (effects (font (size 1.27 1.27)))
    )
    (property "Footprint" "Relay_THT:Relay_1P1T_NO_10x24x18.8mm_Panasonic_ADW11xxxxW_THT" (at 138.43 19.05 0)
      (effects (font (size 1.27 1.27)) (justify left) hide)
    )
    (property "Datasheet" "~" (at 139.7 30.48 0)
      (effects (font (size 1.27 1.27)) hide)
    )
    (pin "13" (uuid a1ef6f6a-4268-4d5e-a116-f7618605419d))
    (pin "A2" (uuid 84b578fc-1ce2-428e-8a20-5f48e0464984))
    (pin "14" (uuid f1ebfdec-6317-4e01-97e2-85aebdadcb2e))
    (pin "A1" (uuid 3d3df846-725f-4793-b70d-fcb77a5ba0c4))
    (instances
      (project "rover-power-distribution"
        (path "/9114eb76-cc2f-406a-9f2d-aff6b30a47d1"
          (reference "K1") (unit 1)
        )
      )
    )
  )

  (symbol (lib_id "Regulator_Linear:L7805") (at 68.58 63.5 0) (unit 1)
    (in_bom yes) (on_board yes) (dnp no) (fields_autoplaced)
    (uuid a377ac95-90c2-4e9b-b27b-58c2a3cc1ae8)
    (property "Reference" "U2" (at 68.58 56.388 0)
      (effects (font (size 1.27 1.27)))
    )
    (property "Value" "L7805" (at 68.58 58.928 0)
      (effects (font (size 1.27 1.27)))
    )
    (property "Footprint" "Package_TO_SOT_THT:TO-220-3_Vertical" (at 69.215 67.31 0)
      (effects (font (size 1.27 1.27) italic) (justify left) hide)
    )
    (property "Datasheet" "http://www.st.com/content/ccc/resource/technical/document/datasheet/41/4f/b3/b0/12/d4/47/88/CD00000444.pdf/files/CD00000444.pdf/jcr:content/translations/en.CD00000444.pdf" (at 68.58 64.77 0)
      (effects (font (size 1.27 1.27)) hide)
    )
    (pin "3" (uuid b54dce06-3ace-48cf-8738-0aa829816606))
    (pin "2" (uuid caac0337-0f8b-40ae-b275-b3df28a0eab9))
    (pin "1" (uuid fdd61bb7-422b-4eaf-8acf-eb1e285445f7))
    (instances
      (project "rover-power-distribution"
        (path "/9114eb76-cc2f-406a-9f2d-aff6b30a47d1"
          (reference "U2") (unit 1)
        )
      )
    )
  )

  (symbol (lib_id "Connector:Screw_Terminal_01x02") (at 165.1 50.8 0) (unit 1)
    (in_bom yes) (on_board yes) (dnp no) (fields_autoplaced)
    (uuid a697a8b8-c64a-41bc-968e-e7495301b775)
    (property "Reference" "J4" (at 167.64 50.8 0)
      (effects (font (size 1.27 1.27)) (justify left))
    )
    (property "Value" "M2" (at 167.64 53.34 0)
      (effects (font (size 1.27 1.27)) (justify left))
    )
    (property "Footprint" "TerminalBlock:TerminalBlock_Wuerth_691311400102_P7.62mm" (at 165.1 50.8 0)
      (effects (font (size 1.27 1.27)) hide)
    )
    (property "Datasheet" "~" (at 165.1 50.8 0)
      (effects (font (size 1.27 1.27)) hide)
    )
    (pin "1" (uuid 15cbceb5-f6b9-48a2-9dde-4f4cb8d8ae04))
    (pin "2" (uuid 82b94691-d645-48b7-a4b3-62cfb5ad01f5))
    (instances
      (project "rover-power-distribution"
        (path "/9114eb76-cc2f-406a-9f2d-aff6b30a47d1"
          (reference "J4") (unit 1)
        )
      )
    )
  )

  (symbol (lib_id "Relay:Relay_SPST-NO") (at 139.7 58.42 270) (mirror x) (unit 1)
    (in_bom yes) (on_board yes) (dnp no)
    (uuid a8b8658c-00c4-46d3-b602-2d0eb7f8be24)
    (property "Reference" "K2" (at 139.7 43.18 90)
      (effects (font (size 1.27 1.27)) hide)
    )
    (property "Value" "Relay_SPST-NO" (at 139.7 45.72 90)
      (effects (font (size 1.27 1.27)))
    )
    (property "Footprint" "Relay_THT:Relay_1P1T_NO_10x24x18.8mm_Panasonic_ADW11xxxxW_THT" (at 138.43 46.99 0)
      (effects (font (size 1.27 1.27)) (justify left) hide)
    )
    (property "Datasheet" "~" (at 139.7 58.42 0)
      (effects (font (size 1.27 1.27)) hide)
    )
    (pin "13" (uuid a99fd6f9-fe04-4086-9d58-f86316a1cc7f))
    (pin "A2" (uuid 586d9c07-a48e-424e-bcdd-bb72899e4ad3))
    (pin "14" (uuid 87b30089-7b8c-42a6-87e4-4567ba002904))
    (pin "A1" (uuid 0bab5216-7cb6-459b-a413-3b85d3c34062))
    (instances
      (project "rover-power-distribution"
        (path "/9114eb76-cc2f-406a-9f2d-aff6b30a47d1"
          (reference "K2") (unit 1)
        )
      )
    )
  )

  (symbol (lib_id "Connector:Screw_Terminal_01x02") (at 96.52 91.44 0) (unit 1)
    (in_bom yes) (on_board yes) (dnp no)
    (uuid aaa77ab3-d285-4270-8756-bb52c7fdf334)
    (property "Reference" "J10" (at 99.695 91.44 0)
      (effects (font (size 1.27 1.27)) (justify left))
    )
    (property "Value" "5V out 2" (at 99.695 93.98 0)
      (effects (font (size 1.27 1.27)) (justify left))
    )
    (property "Footprint" "TerminalBlock:TerminalBlock_Wuerth_691311400102_P7.62mm" (at 96.52 91.44 0)
      (effects (font (size 1.27 1.27)) hide)
    )
    (property "Datasheet" "~" (at 96.52 91.44 0)
      (effects (font (size 1.27 1.27)) hide)
    )
    (pin "1" (uuid c35067ee-f40a-4fee-a22b-6d19e15b309d))
    (pin "2" (uuid 427a0b63-f75b-495b-af9e-92b5d5807a9f))
    (instances
      (project "rover-power-distribution"
        (path "/9114eb76-cc2f-406a-9f2d-aff6b30a47d1"
          (reference "J10") (unit 1)
        )
      )
    )
  )

  (symbol (lib_id "Device:C") (at 55.88 40.64 0) (unit 1)
    (in_bom yes) (on_board yes) (dnp no)
    (uuid b053b967-33ed-452e-941f-b5a373f952cc)
    (property "Reference" "C1" (at 53.086 38.354 0)
      (effects (font (size 1.27 1.27)) (justify left))
    )
    (property "Value" "330n" (at 50.4444 43.0784 0)
      (effects (font (size 1.27 1.27)) (justify left))
    )
    (property "Footprint" "Capacitor_THT:CP_Radial_D6.3mm_P2.50mm" (at 56.8452 44.45 0)
      (effects (font (size 1.27 1.27)) hide)
    )
    (property "Datasheet" "~" (at 55.88 40.64 0)
      (effects (font (size 1.27 1.27)) hide)
    )
    (pin "1" (uuid f7f8ebc1-5b21-43f7-9b58-91e64a6d6738))
    (pin "2" (uuid f9f3c781-ddb3-4dc1-a496-20a8aef6dd38))
    (instances
      (project "rover-power-distribution"
        (path "/9114eb76-cc2f-406a-9f2d-aff6b30a47d1"
          (reference "C1") (unit 1)
        )
      )
    )
  )

  (symbol (lib_id "Connector:Screw_Terminal_01x02") (at 20.32 25.4 0) (mirror y) (unit 1)
    (in_bom yes) (on_board yes) (dnp no)
    (uuid b34e31e4-d02c-4d8a-b409-e3a096f591ae)
    (property "Reference" "J1" (at 17.145 25.4 0)
      (effects (font (size 1.27 1.27)) (justify left))
    )
    (property "Value" "VIN" (at 17.145 27.94 0)
      (effects (font (size 1.27 1.27)) (justify left))
    )
    (property "Footprint" "TerminalBlock:TerminalBlock_Wuerth_691311400102_P7.62mm" (at 20.32 25.4 0)
      (effects (font (size 1.27 1.27)) hide)
    )
    (property "Datasheet" "~" (at 20.32 25.4 0)
      (effects (font (size 1.27 1.27)) hide)
    )
    (pin "1" (uuid 6fc0ffec-a53f-4aec-a44f-12bbd966c541))
    (pin "2" (uuid 27234e32-10ad-4a31-8eb6-8ee9992f7683))
    (instances
      (project "rover-power-distribution"
        (path "/9114eb76-cc2f-406a-9f2d-aff6b30a47d1"
          (reference "J1") (unit 1)
        )
      )
    )
  )

  (symbol (lib_id "Device:C") (at 81.28 96.52 0) (unit 1)
    (in_bom yes) (on_board yes) (dnp no) (fields_autoplaced)
    (uuid b6d8b7cd-e86d-48e1-9c94-51aefa2faf7c)
    (property "Reference" "C6" (at 84.836 95.25 0)
      (effects (font (size 1.27 1.27)) (justify left))
    )
    (property "Value" "100n" (at 84.836 97.79 0)
      (effects (font (size 1.27 1.27)) (justify left))
    )
    (property "Footprint" "Capacitor_THT:CP_Radial_D6.3mm_P2.50mm" (at 82.2452 100.33 0)
      (effects (font (size 1.27 1.27)) hide)
    )
    (property "Datasheet" "~" (at 81.28 96.52 0)
      (effects (font (size 1.27 1.27)) hide)
    )
    (pin "1" (uuid 1f5afd7b-5ad7-4318-99d4-7004d12de4db))
    (pin "2" (uuid 9321e62c-5b94-472d-871e-4036a2c56b61))
    (instances
      (project "rover-power-distribution"
        (path "/9114eb76-cc2f-406a-9f2d-aff6b30a47d1"
          (reference "C6") (unit 1)
        )
      )
    )
  )

  (symbol (lib_id "Device:C") (at 81.28 40.64 0) (unit 1)
    (in_bom yes) (on_board yes) (dnp no) (fields_autoplaced)
    (uuid b7a5cc51-076e-4d09-ac66-d55aa57fbad1)
    (property "Reference" "C2" (at 84.836 39.37 0)
      (effects (font (size 1.27 1.27)) (justify left))
    )
    (property "Value" "100n" (at 84.836 41.91 0)
      (effects (font (size 1.27 1.27)) (justify left))
    )
    (property "Footprint" "Capacitor_THT:CP_Radial_D6.3mm_P2.50mm" (at 82.2452 44.45 0)
      (effects (font (size 1.27 1.27)) hide)
    )
    (property "Datasheet" "~" (at 81.28 40.64 0)
      (effects (font (size 1.27 1.27)) hide)
    )
    (pin "1" (uuid 28f33e91-5e38-4dc4-98bf-91f6c5706d7f))
    (pin "2" (uuid d1309583-f259-4855-8abe-30a061cf191e))
    (instances
      (project "rover-power-distribution"
        (path "/9114eb76-cc2f-406a-9f2d-aff6b30a47d1"
          (reference "C2") (unit 1)
        )
      )
    )
  )

  (symbol (lib_id "power:GND") (at 25.4 30.48 0) (unit 1)
    (in_bom yes) (on_board yes) (dnp no) (fields_autoplaced)
    (uuid c3db0fa2-d8b3-48c7-8445-ae0b659e928c)
    (property "Reference" "#PWR04" (at 25.4 36.83 0)
      (effects (font (size 1.27 1.27)) hide)
    )
    (property "Value" "GND" (at 25.4 35.433 0)
      (effects (font (size 1.27 1.27)))
    )
    (property "Footprint" "" (at 25.4 30.48 0)
      (effects (font (size 1.27 1.27)) hide)
    )
    (property "Datasheet" "" (at 25.4 30.48 0)
      (effects (font (size 1.27 1.27)) hide)
    )
    (pin "1" (uuid 0608f255-2e51-43aa-af11-967e38632b73))
    (instances
      (project "rover-power-distribution"
        (path "/9114eb76-cc2f-406a-9f2d-aff6b30a47d1"
          (reference "#PWR04") (unit 1)
        )
      )
    )
  )

  (symbol (lib_id "Connector:Screw_Terminal_01x02") (at 165.1 86.36 0) (unit 1)
    (in_bom yes) (on_board yes) (dnp no) (fields_autoplaced)
    (uuid ccc9b58b-e2f5-45f3-83ab-6fa03b7e1a22)
    (property "Reference" "J7" (at 167.64 86.36 0)
      (effects (font (size 1.27 1.27)) (justify left))
    )
    (property "Value" "M5" (at 167.64 88.9 0)
      (effects (font (size 1.27 1.27)) (justify left))
    )
    (property "Footprint" "TerminalBlock:TerminalBlock_Wuerth_691311400102_P7.62mm" (at 165.1 86.36 0)
      (effects (font (size 1.27 1.27)) hide)
    )
    (property "Datasheet" "~" (at 165.1 86.36 0)
      (effects (font (size 1.27 1.27)) hide)
    )
    (pin "1" (uuid 45a14874-84fe-41da-aed9-22ea9d3a314b))
    (pin "2" (uuid a700f5ea-c99e-40ce-bc9f-d147e520ad77))
    (instances
      (project "rover-power-distribution"
        (path "/9114eb76-cc2f-406a-9f2d-aff6b30a47d1"
          (reference "J7") (unit 1)
        )
      )
    )
  )

  (symbol (lib_id "power:+BATT") (at 40.64 152.4 0) (unit 1)
    (in_bom yes) (on_board yes) (dnp no) (fields_autoplaced)
    (uuid d5bade07-d2cf-4de9-b58d-8610733ffeaf)
    (property "Reference" "#PWR013" (at 40.64 156.21 0)
      (effects (font (size 1.27 1.27)) hide)
    )
    (property "Value" "+BATT" (at 40.64 147.32 0)
      (effects (font (size 1.27 1.27)))
    )
    (property "Footprint" "" (at 40.64 152.4 0)
      (effects (font (size 1.27 1.27)) hide)
    )
    (property "Datasheet" "" (at 40.64 152.4 0)
      (effects (font (size 1.27 1.27)) hide)
    )
    (pin "1" (uuid 5ae71ffc-81fb-430b-8051-f865d4560a77))
    (instances
      (project "rover-power-distribution"
        (path "/9114eb76-cc2f-406a-9f2d-aff6b30a47d1"
          (reference "#PWR013") (unit 1)
        )
      )
    )
  )

  (symbol (lib_id "power:GND") (at 66.04 106.68 0) (unit 1)
    (in_bom yes) (on_board yes) (dnp no)
    (uuid d9f2ef2c-34fd-4a0b-98d9-fe5bd6d08e0a)
    (property "Reference" "#PWR02" (at 66.04 113.03 0)
      (effects (font (size 1.27 1.27)) hide)
    )
    (property "Value" "GND" (at 66.04 110.2868 0)
      (effects (font (size 1.27 1.27)))
    )
    (property "Footprint" "" (at 66.04 106.68 0)
      (effects (font (size 1.27 1.27)) hide)
    )
    (property "Datasheet" "" (at 66.04 106.68 0)
      (effects (font (size 1.27 1.27)) hide)
    )
    (pin "1" (uuid 7707ff31-32dd-4f2e-9cc5-107131e2c53c))
    (instances
      (project "rover-power-distribution"
        (path "/9114eb76-cc2f-406a-9f2d-aff6b30a47d1"
          (reference "#PWR02") (unit 1)
        )
      )
    )
  )

  (symbol (lib_id "Device:Fuse") (at 120.65 81.28 90) (unit 1)
    (in_bom yes) (on_board yes) (dnp no) (fields_autoplaced)
    (uuid da900e21-ae60-4204-bc1e-397bfdb88e5c)
    (property "Reference" "F4" (at 120.65 75.311 90)
      (effects (font (size 1.27 1.27)))
    )
    (property "Value" "7A5" (at 120.65 77.851 90)
      (effects (font (size 1.27 1.27)))
    )
    (property "Footprint" "Fuse:Fuseholder_Blade_ATO_Littelfuse_Pudenz_2_Pin" (at 120.65 83.058 90)
      (effects (font (size 1.27 1.27)) hide)
    )
    (property "Datasheet" "~" (at 120.65 81.28 0)
      (effects (font (size 1.27 1.27)) hide)
    )
    (pin "2" (uuid 407ede4d-f18f-4766-81d0-59d40b74e026))
    (pin "1" (uuid be3dcb27-54b0-40d6-8d5d-88cdf60af0f1))
    (instances
      (project "rover-power-distribution"
        (path "/9114eb76-cc2f-406a-9f2d-aff6b30a47d1"
          (reference "F4") (unit 1)
        )
      )
    )
  )

  (symbol (lib_id "power:GND") (at 66.04 78.74 0) (unit 1)
    (in_bom yes) (on_board yes) (dnp no)
    (uuid e02f0103-c803-4044-912e-b2e74ad3623d)
    (property "Reference" "#PWR01" (at 66.04 85.09 0)
      (effects (font (size 1.27 1.27)) hide)
    )
    (property "Value" "GND" (at 66.04 82.3468 0)
      (effects (font (size 1.27 1.27)))
    )
    (property "Footprint" "" (at 66.04 78.74 0)
      (effects (font (size 1.27 1.27)) hide)
    )
    (property "Datasheet" "" (at 66.04 78.74 0)
      (effects (font (size 1.27 1.27)) hide)
    )
    (pin "1" (uuid 81560313-14b3-4fae-8af0-773b93e5430b))
    (instances
      (project "rover-power-distribution"
        (path "/9114eb76-cc2f-406a-9f2d-aff6b30a47d1"
          (reference "#PWR01") (unit 1)
        )
      )
    )
  )

  (symbol (lib_id "Device:Fuse") (at 34.29 25.4 90) (unit 1)
    (in_bom yes) (on_board yes) (dnp no) (fields_autoplaced)
    (uuid e84a1588-c972-4717-8280-b5a892aed161)
    (property "Reference" "F1" (at 34.29 19.685 90)
      (effects (font (size 1.27 1.27)))
    )
    (property "Value" "20A" (at 34.29 22.225 90)
      (effects (font (size 1.27 1.27)))
    )
    (property "Footprint" "Fuse:Fuseholder_Blade_ATO_Littelfuse_Pudenz_2_Pin" (at 34.29 27.178 90)
      (effects (font (size 1.27 1.27)) hide)
    )
    (property "Datasheet" "~" (at 34.29 25.4 0)
      (effects (font (size 1.27 1.27)) hide)
    )
    (pin "2" (uuid 699b5e18-698d-4720-917e-e62dbb61d662))
    (pin "1" (uuid 43d4d432-6543-4aa1-98b1-203383eef87f))
    (instances
      (project "rover-power-distribution"
        (path "/9114eb76-cc2f-406a-9f2d-aff6b30a47d1"
          (reference "F1") (unit 1)
        )
      )
    )
  )

  (symbol (lib_id "Device:C") (at 81.28 68.58 0) (unit 1)
    (in_bom yes) (on_board yes) (dnp no) (fields_autoplaced)
    (uuid ea963567-328a-4c05-bd6a-45c2f8fca5d7)
    (property "Reference" "C4" (at 84.836 67.31 0)
      (effects (font (size 1.27 1.27)) (justify left))
    )
    (property "Value" "100n" (at 84.836 69.85 0)
      (effects (font (size 1.27 1.27)) (justify left))
    )
    (property "Footprint" "Capacitor_THT:CP_Radial_D6.3mm_P2.50mm" (at 82.2452 72.39 0)
      (effects (font (size 1.27 1.27)) hide)
    )
    (property "Datasheet" "~" (at 81.28 68.58 0)
      (effects (font (size 1.27 1.27)) hide)
    )
    (pin "1" (uuid ec82a4e3-e5c9-4317-af62-01a17a288ffa))
    (pin "2" (uuid 6942a5d5-2f44-4b22-8039-c2aec40b8af2))
    (instances
      (project "rover-power-distribution"
        (path "/9114eb76-cc2f-406a-9f2d-aff6b30a47d1"
          (reference "C4") (unit 1)
        )
      )
    )
  )

  (symbol (lib_id "power:PWR_FLAG") (at 40.64 152.4 0) (mirror x) (unit 1)
    (in_bom yes) (on_board yes) (dnp no)
    (uuid ff3cdf17-a61e-4d9f-9a1b-ee6c72760372)
    (property "Reference" "#FLG03" (at 40.64 154.305 0)
      (effects (font (size 1.27 1.27)) hide)
    )
    (property "Value" "PWR_FLAG" (at 40.64 157.734 0)
      (effects (font (size 1.27 1.27)))
    )
    (property "Footprint" "" (at 40.64 152.4 0)
      (effects (font (size 1.27 1.27)) hide)
    )
    (property "Datasheet" "~" (at 40.64 152.4 0)
      (effects (font (size 1.27 1.27)) hide)
    )
    (pin "1" (uuid 1d86e0d7-38d1-4210-8b2b-78178aff0c38))
    (instances
      (project "rover-power-distribution"
        (path "/9114eb76-cc2f-406a-9f2d-aff6b30a47d1"
          (reference "#FLG03") (unit 1)
        )
      )
    )
  )

  (sheet_instances
    (path "/" (page "1"))
  )
)
