(kicad_sch (version 20230121) (generator eeschema)

  (uuid 87daac87-8f03-47e0-85ae-0d090303b9b2)

  (paper "A4")

  (lib_symbols
    (symbol "Connector:RJ45" (pin_names (offset 1.016)) (in_bom yes) (on_board yes)
      (property "Reference" "J" (at -5.08 13.97 0)
        (effects (font (size 1.27 1.27)) (justify right))
      )
      (property "Value" "RJ45" (at 2.54 13.97 0)
        (effects (font (size 1.27 1.27)) (justify left))
      )
      (property "Footprint" "" (at 0 0.635 90)
        (effects (font (size 1.27 1.27)) hide)
      )
      (property "Datasheet" "~" (at 0 0.635 90)
        (effects (font (size 1.27 1.27)) hide)
      )
      (property "ki_keywords" "8P8C RJ socket connector" (at 0 0 0)
        (effects (font (size 1.27 1.27)) hide)
      )
      (property "ki_description" "RJ connector, 8P8C (8 positions 8 connected)" (at 0 0 0)
        (effects (font (size 1.27 1.27)) hide)
      )
      (property "ki_fp_filters" "8P8C* RJ31* RJ32* RJ33* RJ34* RJ35* RJ41* RJ45* RJ49* RJ61*" (at 0 0 0)
        (effects (font (size 1.27 1.27)) hide)
      )
      (symbol "RJ45_0_1"
        (polyline
          (pts
            (xy -5.08 4.445)
            (xy -6.35 4.445)
          )
          (stroke (width 0) (type default))
          (fill (type none))
        )
        (polyline
          (pts
            (xy -5.08 5.715)
            (xy -6.35 5.715)
          )
          (stroke (width 0) (type default))
          (fill (type none))
        )
        (polyline
          (pts
            (xy -6.35 -3.175)
            (xy -5.08 -3.175)
            (xy -5.08 -3.175)
          )
          (stroke (width 0) (type default))
          (fill (type none))
        )
        (polyline
          (pts
            (xy -6.35 -1.905)
            (xy -5.08 -1.905)
            (xy -5.08 -1.905)
          )
          (stroke (width 0) (type default))
          (fill (type none))
        )
        (polyline
          (pts
            (xy -6.35 -0.635)
            (xy -5.08 -0.635)
            (xy -5.08 -0.635)
          )
          (stroke (width 0) (type default))
          (fill (type none))
        )
        (polyline
          (pts
            (xy -6.35 0.635)
            (xy -5.08 0.635)
            (xy -5.08 0.635)
          )
          (stroke (width 0) (type default))
          (fill (type none))
        )
        (polyline
          (pts
            (xy -6.35 1.905)
            (xy -5.08 1.905)
            (xy -5.08 1.905)
          )
          (stroke (width 0) (type default))
          (fill (type none))
        )
        (polyline
          (pts
            (xy -5.08 3.175)
            (xy -6.35 3.175)
            (xy -6.35 3.175)
          )
          (stroke (width 0) (type default))
          (fill (type none))
        )
        (polyline
          (pts
            (xy -6.35 -4.445)
            (xy -6.35 6.985)
            (xy 3.81 6.985)
            (xy 3.81 4.445)
            (xy 5.08 4.445)
            (xy 5.08 3.175)
            (xy 6.35 3.175)
            (xy 6.35 -0.635)
            (xy 5.08 -0.635)
            (xy 5.08 -1.905)
            (xy 3.81 -1.905)
            (xy 3.81 -4.445)
            (xy -6.35 -4.445)
            (xy -6.35 -4.445)
          )
          (stroke (width 0) (type default))
          (fill (type none))
        )
        (rectangle (start 7.62 12.7) (end -7.62 -10.16)
          (stroke (width 0.254) (type default))
          (fill (type background))
        )
      )
      (symbol "RJ45_1_1"
        (pin passive line (at 10.16 -7.62 180) (length 2.54)
          (name "~" (effects (font (size 1.27 1.27))))
          (number "1" (effects (font (size 1.27 1.27))))
        )
        (pin passive line (at 10.16 -5.08 180) (length 2.54)
          (name "~" (effects (font (size 1.27 1.27))))
          (number "2" (effects (font (size 1.27 1.27))))
        )
        (pin passive line (at 10.16 -2.54 180) (length 2.54)
          (name "~" (effects (font (size 1.27 1.27))))
          (number "3" (effects (font (size 1.27 1.27))))
        )
        (pin passive line (at 10.16 0 180) (length 2.54)
          (name "~" (effects (font (size 1.27 1.27))))
          (number "4" (effects (font (size 1.27 1.27))))
        )
        (pin passive line (at 10.16 2.54 180) (length 2.54)
          (name "~" (effects (font (size 1.27 1.27))))
          (number "5" (effects (font (size 1.27 1.27))))
        )
        (pin passive line (at 10.16 5.08 180) (length 2.54)
          (name "~" (effects (font (size 1.27 1.27))))
          (number "6" (effects (font (size 1.27 1.27))))
        )
        (pin passive line (at 10.16 7.62 180) (length 2.54)
          (name "~" (effects (font (size 1.27 1.27))))
          (number "7" (effects (font (size 1.27 1.27))))
        )
        (pin passive line (at 10.16 10.16 180) (length 2.54)
          (name "~" (effects (font (size 1.27 1.27))))
          (number "8" (effects (font (size 1.27 1.27))))
        )
      )
    )
    (symbol "Connector_Generic:Conn_01x08" (pin_names (offset 1.016) hide) (in_bom yes) (on_board yes)
      (property "Reference" "J" (at 0 10.16 0)
        (effects (font (size 1.27 1.27)))
      )
      (property "Value" "Conn_01x08" (at 0 -12.7 0)
        (effects (font (size 1.27 1.27)))
      )
      (property "Footprint" "" (at 0 0 0)
        (effects (font (size 1.27 1.27)) hide)
      )
      (property "Datasheet" "~" (at 0 0 0)
        (effects (font (size 1.27 1.27)) hide)
      )
      (property "ki_keywords" "connector" (at 0 0 0)
        (effects (font (size 1.27 1.27)) hide)
      )
      (property "ki_description" "Generic connector, single row, 01x08, script generated (kicad-library-utils/schlib/autogen/connector/)" (at 0 0 0)
        (effects (font (size 1.27 1.27)) hide)
      )
      (property "ki_fp_filters" "Connector*:*_1x??_*" (at 0 0 0)
        (effects (font (size 1.27 1.27)) hide)
      )
      (symbol "Conn_01x08_1_1"
        (rectangle (start -1.27 -10.033) (end 0 -10.287)
          (stroke (width 0.1524) (type default))
          (fill (type none))
        )
        (rectangle (start -1.27 -7.493) (end 0 -7.747)
          (stroke (width 0.1524) (type default))
          (fill (type none))
        )
        (rectangle (start -1.27 -4.953) (end 0 -5.207)
          (stroke (width 0.1524) (type default))
          (fill (type none))
        )
        (rectangle (start -1.27 -2.413) (end 0 -2.667)
          (stroke (width 0.1524) (type default))
          (fill (type none))
        )
        (rectangle (start -1.27 0.127) (end 0 -0.127)
          (stroke (width 0.1524) (type default))
          (fill (type none))
        )
        (rectangle (start -1.27 2.667) (end 0 2.413)
          (stroke (width 0.1524) (type default))
          (fill (type none))
        )
        (rectangle (start -1.27 5.207) (end 0 4.953)
          (stroke (width 0.1524) (type default))
          (fill (type none))
        )
        (rectangle (start -1.27 7.747) (end 0 7.493)
          (stroke (width 0.1524) (type default))
          (fill (type none))
        )
        (rectangle (start -1.27 8.89) (end 1.27 -11.43)
          (stroke (width 0.254) (type default))
          (fill (type background))
        )
        (pin passive line (at -5.08 7.62 0) (length 3.81)
          (name "Pin_1" (effects (font (size 1.27 1.27))))
          (number "1" (effects (font (size 1.27 1.27))))
        )
        (pin passive line (at -5.08 5.08 0) (length 3.81)
          (name "Pin_2" (effects (font (size 1.27 1.27))))
          (number "2" (effects (font (size 1.27 1.27))))
        )
        (pin passive line (at -5.08 2.54 0) (length 3.81)
          (name "Pin_3" (effects (font (size 1.27 1.27))))
          (number "3" (effects (font (size 1.27 1.27))))
        )
        (pin passive line (at -5.08 0 0) (length 3.81)
          (name "Pin_4" (effects (font (size 1.27 1.27))))
          (number "4" (effects (font (size 1.27 1.27))))
        )
        (pin passive line (at -5.08 -2.54 0) (length 3.81)
          (name "Pin_5" (effects (font (size 1.27 1.27))))
          (number "5" (effects (font (size 1.27 1.27))))
        )
        (pin passive line (at -5.08 -5.08 0) (length 3.81)
          (name "Pin_6" (effects (font (size 1.27 1.27))))
          (number "6" (effects (font (size 1.27 1.27))))
        )
        (pin passive line (at -5.08 -7.62 0) (length 3.81)
          (name "Pin_7" (effects (font (size 1.27 1.27))))
          (number "7" (effects (font (size 1.27 1.27))))
        )
        (pin passive line (at -5.08 -10.16 0) (length 3.81)
          (name "Pin_8" (effects (font (size 1.27 1.27))))
          (number "8" (effects (font (size 1.27 1.27))))
        )
      )
    )
  )


  (wire (pts (xy 63.5 43.18) (xy 69.85 43.18))
    (stroke (width 0) (type default))
    (uuid 01fd1f5a-8206-4375-8d17-f8e6c7725a9a)
  )
  (wire (pts (xy 63.5 45.72) (xy 69.85 45.72))
    (stroke (width 0) (type default))
    (uuid 0916576f-a058-4d98-9563-8b4af30d4950)
  )
  (wire (pts (xy 63.5 50.8) (xy 69.85 50.8))
    (stroke (width 0) (type default))
    (uuid 74488aa8-4bb3-4182-b646-997fe2c4ac3e)
  )
  (wire (pts (xy 63.5 40.64) (xy 69.85 40.64))
    (stroke (width 0) (type default))
    (uuid 847a08cb-ad81-499d-b396-58eb0fa9b7e8)
  )
  (wire (pts (xy 63.5 38.1) (xy 69.85 38.1))
    (stroke (width 0) (type default))
    (uuid bc07d99b-e38d-43c8-9cb6-699159684fb5)
  )
  (wire (pts (xy 63.5 53.34) (xy 69.85 53.34))
    (stroke (width 0) (type default))
    (uuid d640928e-bd24-4044-8fbe-41633add4321)
  )
  (wire (pts (xy 63.5 48.26) (xy 69.85 48.26))
    (stroke (width 0) (type default))
    (uuid de2779ba-c08d-4c78-bac4-4ee95fea40d2)
  )
  (wire (pts (xy 63.5 55.88) (xy 69.85 55.88))
    (stroke (width 0) (type default))
    (uuid fedba8db-4923-4820-9cba-f7cb4f5c93a7)
  )

  (symbol (lib_id "Connector_Generic:Conn_01x08") (at 74.93 45.72 0) (unit 1)
    (in_bom yes) (on_board yes) (dnp no)
    (uuid 317084fe-7763-4664-b965-a867e64e6e07)
    (property "Reference" "J2" (at 74.93 35.56 0)
      (effects (font (size 1.27 1.27)))
    )
    (property "Value" "Conn_01x08" (at 74.93 58.42 0)
      (effects (font (size 1.27 1.27)))
    )
    (property "Footprint" "Connector_JST:JST_XH_B8B-XH-A_1x08_P2.50mm_Vertical" (at 74.93 45.72 0)
      (effects (font (size 1.27 1.27)) hide)
    )
    (property "Datasheet" "~" (at 74.93 45.72 0)
      (effects (font (size 1.27 1.27)) hide)
    )
    (pin "1" (uuid 78fa6bb7-965e-4f0c-bd36-056173932405))
    (pin "2" (uuid 9952b6f1-700e-45f3-9137-728e8bf74129))
    (pin "3" (uuid cbf09918-4469-4f4b-9c3f-0ff12a1eb4c7))
    (pin "4" (uuid bbca091e-e599-4d43-973d-03026b4813d8))
    (pin "5" (uuid a40deace-0aca-4abf-a3ce-bdcfbeaa821a))
    (pin "6" (uuid e4153de7-0bb2-42ae-af39-3fa7950d5d96))
    (pin "7" (uuid 872fa18d-9fc7-4e91-b5a0-eae268af915d))
    (pin "8" (uuid 0b162a95-17ba-477b-ad08-9dd8b8f8afc9))
    (instances
      (project "rj45-breakout-model"
        (path "/87daac87-8f03-47e0-85ae-0d090303b9b2"
          (reference "J2") (unit 1)
        )
      )
    )
  )

  (symbol (lib_id "Connector:RJ45") (at 53.34 48.26 0) (unit 1)
    (in_bom yes) (on_board yes) (dnp no)
    (uuid ae9157f4-f28d-4055-9b47-8a261738c4b0)
    (property "Reference" "J1" (at 53.34 34.29 0)
      (effects (font (size 1.27 1.27)))
    )
    (property "Value" "RJ45" (at 53.34 59.69 0)
      (effects (font (size 1.27 1.27)))
    )
    (property "Footprint" "Okaphone:TD788R-RJ45" (at 53.34 47.625 90)
      (effects (font (size 1.27 1.27)) hide)
    )
    (property "Datasheet" "~" (at 53.34 47.625 90)
      (effects (font (size 1.27 1.27)) hide)
    )
    (pin "1" (uuid 89b96035-739d-479f-a7ac-e2f1586f26cc))
    (pin "2" (uuid 74689635-5f82-46d7-86f4-6772e84370c1))
    (pin "3" (uuid 65d56804-f4e2-4096-a82a-caf31fc3bbb7))
    (pin "4" (uuid 41e9a926-b294-4db0-b788-bb674a09be19))
    (pin "5" (uuid edf090b1-db36-4e82-a7e0-450e7ebb06bc))
    (pin "6" (uuid db79b93a-43bc-4ef0-ab86-c8d16cf95133))
    (pin "7" (uuid 3f9bdfe7-e172-4ab0-bc38-cc0de267ed6e))
    (pin "8" (uuid 1e4a1793-f466-4808-aa0d-861d72f44b8f))
    (instances
      (project "rj45-breakout-model"
        (path "/87daac87-8f03-47e0-85ae-0d090303b9b2"
          (reference "J1") (unit 1)
        )
      )
    )
  )

  (sheet_instances
    (path "/" (page "1"))
  )
)
